  sub_1870(qword_203018, "k", "Lendrens");
  sub_1870(qword_203018, "d", "Thauv'i");
  sub_1870(qword_203018, "P", "Throrqiek");
  sub_1870(qword_203018, "e", "Inqods");
  sub_1870(qword_203018, "6", "Tarquts");
  sub_1870(qword_203018, "p", "Dut");
  sub_1870(qword_203018, "A", "Krolkel");
  sub_1870(qword_203018, "n", "Emoi");
  sub_1870(qword_203018, "|", "Dakroith");
  sub_1870(qword_203018, "*", "Creiqex");
  sub_1870(qword_203018, "Y", "Thomois");
  sub_1870(qword_203018, "4", "Groz'ens");
  sub_1870(qword_203018, "D", "Urqek");
  sub_1870(qword_203018, "v", "Nid");
  sub_1870(qword_203018, "H", "Crerceon");
  sub_1870(qword_203018, "#", "Yonphie");
  sub_1870(qword_203018, "S", "Xits");
  sub_1870(qword_203018, "I", "Thohul");
  sub_1870(qword_203018, "W", "Zahrull");
  sub_1870(qword_203018, "i", "Om'ons");
  sub_1870(qword_203018, "F", "Kradraks");
  sub_1870(qword_203018, "+", "Ielkul");
  sub_1870(qword_203018, "q", "Vranix");
  sub_1870(qword_203018, "M", "Trun");
  sub_1870(qword_203018, "h", "Craz'ails");
  sub_1870(qword_203018, ".", "Xoq'an");
  sub_1870(qword_203018, "r", "Ukox");
  sub_1870(qword_203018, "N", "Evods");
  sub_1870(qword_203018, ";", "Taxan");
  sub_1870(qword_203018, "b", "Munis");
  sub_1870(qword_203018, "g", "Trurkror");
  sub_1870(qword_203018, "?", "Tulphaer");
  sub_1870(qword_203018, "_", "Ehnu");
  sub_1870(qword_203018, "$", "Krets");
  sub_1870(qword_203018, ",", "Grons");
  sub_1870(qword_203018, ")", "Ingell");
  sub_1870(qword_203018, "(", "Ecruns");
  sub_1870(qword_203018, "m", "Khehlan");
  sub_1870(qword_203018, "R", "Velzaeth");
  sub_1870(qword_203018, "Q", "Cuhix");
  sub_1870(qword_203018, "l", "Vinzo");
  sub_1870(qword_203018, "E", "Istrur");
  sub_1870(qword_203018, ">", "Zuvas");
  sub_1870(qword_203018, "s", "Honzor");
  sub_1870(qword_203018, "0", "Ukteils");
  sub_1870(qword_203018, "}", "Baadix");
  sub_1870(qword_203018, "{", "Zonnu");
  sub_1870(qword_203018, "\\", "Aarcets");
  sub_1870(qword_203018, "[", "Nevell");
  sub_1870(qword_203018, "!", "Dhohmu");
  sub_1870(qword_203018, "X", "Xan");
  sub_1870(qword_203018, "O", "Zissat");
  sub_1870(qword_203018, "x", "Iscax");
  sub_1870(qword_203018, "t", "Pheilons");
  sub_1870(qword_203018, "`", "Ghiso");
  sub_1870(qword_203018, "-", "Scrigvil");
  sub_1870(qword_203018, "B", "Ummuh");
  sub_1870(qword_203018, "u", "Inphas");
  sub_1870(qword_203018, "/", "Vurqails");
  sub_1870(qword_203018, "a", "Vruziels");
  sub_1870(qword_203018, ":", "Ghut'ox");
  sub_1870(qword_203018, "^", "Aahroill");
  sub_1870(qword_203018, "L", "Gairqeik");
  sub_1870(qword_203018, "U", "Qeks");
  sub_1870(qword_203018, "'", "Scuvvils");
  sub_1870(qword_203018, "3", "Ohols");
  sub_1870(qword_203018, "5", "Som'ir");
  sub_1870(qword_203018, "C", "Onzear");
  sub_1870(qword_203018, "2", "Dhaesux");
  sub_1870(qword_203018, "w", "Falnain");
  sub_1870(qword_203018, " ", "Draalpho");
  sub_1870(qword_203018, "G", "Yemor");
  sub_1870(qword_203018, "c", "Thraurgok");
  sub_1870(qword_203018, "\"", "Vogeath");
  sub_1870(qword_203018, "1", "Cuzads");
  sub_1870(qword_203018, "Z", "Gagro");
  sub_1870(qword_203018, "=", "Zad");
  sub_1870(qword_203018, "f", "Dhieqe");
  sub_1870(qword_203018, "&", "Xustrek");
  sub_1870(qword_203018, "o", "Harned");
  sub_1870(qword_203018, "V", "Dhulgea");
  sub_1870(qword_203018, "y", "Zimil");
  sub_1870(qword_203018, "z", "Thretex");
  sub_1870(qword_203018, "8", "Bravon");
  sub_1870(qword_203018, "%", "Krugreall");
  sub_1870(qword_203018, "J", "Vaendred");
  sub_1870(qword_203018, "@", "Osux");
  sub_1870(qword_203018, "T", "Ezains");
  sub_1870(qword_203018, "K", "Mik'ed");
  sub_1870(qword_203018, "<", "Cruz'oll");
  sub_1870(qword_203018, "]", "Dhognot");
  sub_1870(qword_203018, "7", "Drids");
  sub_1870(qword_203018, "9", "Drercieks");
  sub_1870(qword_203018, "j", "Statars");
